Chr	Source	Locus_type	Start	End	Strand	AGI	Description
Chr1	Araport11	as_lncRNA	23312	24099	-	AT1G03993	overlaps with AT1G01040
Chr1	Araport11	as_lncRNA	32727	33009	+	AT1G03997	overlaps with AT1G01050
Chr1	Araport11	as_lncRNA	72646	73108	-	AT1G04007	overlaps with AT1G01160
Chr1	Araport11	as_lncRNA	74435	74683	+	AT1G04013	overlaps with AT1G01170
Chr1	Araport11	as_lncRNA	163278	166353	+	AT1G01448	overlaps with AT1G01450
Chr1	Araport11	as_lncRNA	267993	268336	-	AT1G04043	overlaps with AT1G01720
Chr1	Araport11	as_lncRNA	270067	270517	+	AT1G04047	overlaps with AT1G01725
Chr1	Araport11	as_lncRNA	275473	276319	-	AT1G04053	overlaps with AT1G01750
Chr1	Araport11	as_lncRNA	303463	303977	-	AT1G04067	overlaps with AT1G01840
Chr1	Araport11	as_lncRNA	304481	304713	+	AT1G04073	overlaps with AT1G01860
Chr1	Araport11	as_lncRNA	311828	312884	-	AT1G04077	overlaps with AT1G01900
Chr1	Araport11	as_lncRNA	314189	314463	+	AT1G04083	overlaps with AT1G01910
Chr1	Araport11	as_lncRNA	455880	456198	-	AT1G04097	overlaps with AT1G02305
Chr1	Araport11	as_lncRNA	459122	461921	+	AT1G04103	overlaps with AT1G02310
Chr1	Araport11	as_lncRNA	494008	495548	-	AT1G04117	overlaps with AT1G02420
Chr1	Araport11	as_lncRNA	495887	496190	+	AT1G04123	overlaps with AT1G02430
Chr1	Araport11	as_lncRNA	636337	636614	-	AT1G04147	overlaps with AT1G02860
Chr1	Araport11	as_lncRNA	637772	638231	+	AT1G04153	overlaps with AT1G02870
Chr1	Araport11	as_lncRNA	665354	666367	+	AT1G02952	overlaps with AT1G02950
Chr1	Araport11	as_lncRNA	742298	742522	-	AT1G04157	overlaps with AT1G03090
Chr1	Araport11	as_lncRNA	744724	746147	+	AT1G04163	overlaps with AT1G03100
Chr1	Araport11	as_lncRNA	845677	847683	+	AT1G04183	overlaps with AT1G03410
Chr1	Araport11	as_lncRNA	885941	887972	+	AT1G03545	overlaps with AT1G03550
Chr1	Araport11	as_lncRNA	1018123	1018514	-	AT1G04233	overlaps with AT1G03970
Chr1	Araport11	as_lncRNA	1043118	1043415	+	AT1G04237	overlaps with AT1G04040
Chr1	Araport11	as_lncRNA	1120225	1122526	+	AT1G04247	overlaps with AT1G04220
Chr1	Araport11	as_lncRNA	1147781	1148435	+	AT1G04295	overlaps with AT1G04290
Chr1	Araport11	as_lncRNA	1385478	1386132	-	AT1G04297	overlaps with AT1G04900
Chr1	Araport11	as_lncRNA	1388988	1389225	+	AT1G04303	overlaps with AT1G04910
Chr1	Araport11	as_lncRNA	1508646	1509015	-	AT1G04343	overlaps with AT1G05200
Chr1	Araport11	as_lncRNA	1509751	1510161	+	AT1G04347	overlaps with AT1G05205
Chr1	Araport11	as_lncRNA	1512618	1514562	+	AT1G04353	overlaps with AT1G05230
Chr1	Araport11	as_lncRNA	1645300	1647435	+	AT1G05562	overlaps with AT1G05560
Chr1	Araport11	as_lncRNA	1717730	1718089	+	AT1G04413	overlaps with AT1G05720
Chr1	Araport11	as_lncRNA	1719300	1719659	-	AT1G04417	overlaps with AT1G05730
Chr1	Araport11	as_lncRNA	1762363	1762693	-	AT1G04433	overlaps with AT1G05835
Chr1	Araport11	as_lncRNA	1764573	1764829	+	AT1G04437	overlaps with AT1G05840
Chr1	Araport11	as_lncRNA	1820254	1821887	+	AT1G06002	overlaps with AT1G06000
Chr1	Araport11	as_lncRNA	1914943	1917661	-	AT1G06265	overlaps with AT1G06260
Chr1	Araport11	as_lncRNA	1966019	1966939	-	AT1G04463	overlaps with AT1G06450
Chr1	Araport11	as_lncRNA	1968861	1969332	+	AT1G04467	overlaps with AT1G06460
Chr1	Araport11	as_lncRNA	1989682	1990158	-	AT1G04473	overlaps with AT1G06500
Chr1	Araport11	as_lncRNA	1991587	1991970	+	AT1G04477	overlaps with AT1G06515
Chr1	Araport11	as_lncRNA	2010883	2011109	-	AT1G04483	overlaps with AT1G06560
Chr1	Araport11	as_lncRNA	2035718	2036257	-	AT1G04487	overlaps with AT1G06650
Chr1	Araport11	as_lncRNA	2076515	2076998	+	AT1G04503	overlaps with AT1G06760
Chr1	Araport11	as_lncRNA	2088988	2089235	-	AT1G04507	overlaps with AT1G06790
Chr1	Araport11	as_lncRNA	2089765	2090865	+	AT1G04513	overlaps with AT1G06800
Chr1	Araport11	as_lncRNA	2127414	2127973	-	AT1G04533	overlaps with AT1G06923
Chr1	Araport11	as_lncRNA	2155213	2155622	+	AT1G04537	overlaps with AT1G07020
Chr1	Araport11	as_lncRNA	2184318	2187941	+	AT1G07119	overlaps with AT1G07120
Chr1	Araport11	as_lncRNA	2187566	2188734	-	AT1G07128	overlaps with AT1G07130
Chr1	Araport11	as_lncRNA	2218886	2219281	+	AT1G04567	overlaps with AT1G07220
Chr1	Araport11	as_lncRNA	2293014	2293251	-	AT1G04577	overlaps with AT1G07470
Chr1	Araport11	as_lncRNA	2294889	2295488	+	AT1G04583	overlaps with AT1G07473
Chr1	Araport11	as_lncRNA	2297262	2297552	+	AT1G04587	overlaps with AT1G07480
Chr1	Araport11	as_lncRNA	2394985	2397399	+	AT1G07728	overlaps with AT1G07725
Chr1	Araport11	as_lncRNA	2538664	2539548	-	AT1G04643	overlaps with AT1G08120
Chr1	Araport11	as_lncRNA	2620439	2621546	+	AT1G04647	overlaps with AT1G08315
Chr1	Araport11	as_lncRNA	2718616	2721910	-	AT1G08592	overlaps with AT1G08590
Chr1	Araport11	as_lncRNA	3031497	3032139	-	AT1G04697	overlaps with AT1G09390
Chr1	Araport11	as_lncRNA	3038631	3039326	+	AT1G09421	overlaps with AT1G09420
Chr1	Araport11	as_lncRNA	3111746	3112619	-	AT1G04707	overlaps with AT1G09610
Chr1	Araport11	as_lncRNA	3173866	3174422	-	AT1G04723	overlaps with AT1G09795
Chr1	Araport11	as_lncRNA	3202274	3202774	-	AT1G04737	overlaps with AT1G09850
Chr1	Araport11	as_lncRNA	3204309	3205338	+	AT1G04743	overlaps with AT1G09860
Chr1	Araport11	as_lncRNA	3302720	3303760	-	AT1G04767	overlaps with AT1G10110
Chr1	Araport11	as_lncRNA	3305948	3306688	+	AT1G04773	overlaps with AT1G10120
Chr1	Araport11	as_lncRNA	3470451	3470918	-	AT1G04797	overlaps with AT1G10522
Chr1	Araport11	as_lncRNA	3472127	3472558	+	AT1G04803	overlaps with AT1G10530
Chr1	Araport11	as_lncRNA	3575377	3575814	+	AT1G04817	overlaps with AT1G10747
Chr1	Araport11	as_lncRNA	3611490	3612255	-	AT1G04823	overlaps with AT1G10850
Chr1	Araport11	as_lncRNA	3615292	3616091	+	AT1G04827	overlaps with AT1G10865
Chr1	Araport11	as_lncRNA	3681804	3684151	-	AT1G04833	overlaps with AT1G11050
Chr1	Araport11	as_lncRNA	3702554	3703796	-	AT1G04837	overlaps with AT1G11090
Chr1	Araport11	as_lncRNA	3874538	3874895	-	AT1G04853	overlaps with AT1G11530
Chr1	Araport11	as_lncRNA	3967959	3968238	-	AT1G04883	overlaps with AT1G11750
Chr1	Araport11	as_lncRNA	3975947	3977255	-	AT1G04887	overlaps with AT1G11770
Chr1	Araport11	as_lncRNA	3991393	3991738	+	AT1G04893	overlaps with AT1G11820
Chr1	Araport11	as_lncRNA	4011060	4011493	-	AT1G04913	overlaps with AT1G11890
Chr1	Araport11	as_lncRNA	4013195	4013918	+	AT1G04917	overlaps with AT1G11900
Chr1	Araport11	as_lncRNA	4122066	4122474	-	AT1G04927	overlaps with AT1G12140
Chr1	Araport11	as_lncRNA	4123641	4125090	+	AT1G04933	overlaps with AT1G12150
Chr1	Araport11	as_lncRNA	4257863	4258637	+	AT1G04953	overlaps with AT1G12480
Chr1	Araport11	as_lncRNA	4367768	4368493	-	AT1G04973	overlaps with AT1G12810
Chr1	Araport11	as_lncRNA	4368980	4369617	+	AT1G04977	overlaps with AT1G12820
Chr1	Araport11	as_lncRNA	4612243	4612929	+	AT1G13448	overlaps with AT1G13450
Chr1	Araport11	as_lncRNA	4693764	4693985	-	AT1G05017	overlaps with AT1G13690
Chr1	Araport11	as_lncRNA	4694951	4695230	+	AT1G05023	overlaps with AT1G13700
Chr1	Araport11	as_lncRNA	4714570	4715063	-	AT1G05033	overlaps with AT1G13740
Chr1	Araport11	as_lncRNA	4800688	4801256	+	AT1G05043	overlaps with AT1G14010
Chr1	Araport11	as_lncRNA	4805676	4806123	+	AT1G05047	overlaps with AT1G14030
Chr1	Araport11	as_lncRNA	4915883	4916216	-	AT1G05077	overlaps with AT1G14370
Chr1	Araport11	as_lncRNA	4920783	4921480	+	AT1G05083	overlaps with AT1G14380
Chr1	Araport11	as_lncRNA	5102981	5103303	+	AT1G05123	overlaps with AT1G14810
Chr1	Araport11	as_lncRNA	5168516	5170571	-	AT1G15002	overlaps with AT1G15000
Chr1	Araport11	as_lncRNA	5178738	5179002	-	AT1G05143	overlaps with AT1G15030
Chr1	Araport11	as_lncRNA	5180695	5181247	+	AT1G05147	overlaps with AT1G15040
Chr1	Araport11	as_lncRNA	5222729	5224143	-	AT1G15175	overlaps with AT1G15170
Chr1	Araport11	as_lncRNA	5297847	5298571	-	AT1G05163	overlaps with AT1G15410
Chr1	Araport11	as_lncRNA	5402553	5403853	+	AT1G05183	overlaps with AT1G15700
Chr1	Araport11	as_lncRNA	5406134	5407357	-	AT1G05187	overlaps with AT1G15720
Chr1	Araport11	as_lncRNA	5445341	5445782	-	AT1G05203	overlaps with AT1G15810
Chr1	Araport11	as_lncRNA	5447212	5447569	+	AT1G05207	overlaps with AT1G15820
Chr1	Araport11	as_lncRNA	5479274	5481730	-	AT1G05213	overlaps with AT1G15950
Chr1	Araport11	as_lncRNA	5629183	5631131	+	AT1G16489	overlaps with AT1G16490
Chr1	Araport11	as_lncRNA	5668441	5668939	-	AT1G05243	overlaps with AT1G16560
Chr1	Araport11	as_lncRNA	5723094	5723466	-	AT1G05253	overlaps with AT1G16720
Chr1	Araport11	as_lncRNA	5757508	5758384	+	AT1G05267	overlaps with AT1G16820
Chr1	Araport11	as_lncRNA	5777100	5777828	+	AT1G05277	overlaps with AT1G16890
Chr1	Araport11	as_lncRNA	5837499	5837891	-	AT1G05287	overlaps with AT1G17070
Chr1	Araport11	as_lncRNA	5855473	5855751	-	AT1G05293	overlaps with AT1G17130
Chr1	Araport11	as_lncRNA	5857935	5858271	+	AT1G05297	overlaps with AT1G17140
Chr1	Araport11	as_lncRNA	5890616	5895132	-	AT1G17232	overlaps with AT1G17230
Chr1	Araport11	as_lncRNA	5899972	5903773	+	AT1G17255	overlaps with AT1G17250
Chr1	Araport11	as_lncRNA	6103076	6103654	-	AT1G05317	overlaps with AT1G17745
Chr1	Araport11	as_lncRNA	6106381	6107119	-	AT1G05327	overlaps with AT1G17750
Chr1	Araport11	as_lncRNA	6131064	6135345	-	AT1G05333	overlaps with AT1G17810
Chr1	Araport11	as_lncRNA	6142402	6142830	-	AT1G05337	overlaps with AT1G17840
Chr1	Araport11	as_lncRNA	6146600	6146804	+	AT1G05343	overlaps with AT1G17850
Chr1	Araport11	as_lncRNA	6149305	6150189	-	AT1G05347	overlaps with AT1G17860
Chr1	Araport11	as_lncRNA	6205909	6206145	-	AT1G05363	overlaps with AT1G18030
Chr1	Araport11	as_lncRNA	6208146	6208461	+	AT1G05367	overlaps with AT1G18040
Chr1	Araport11	as_lncRNA	6228598	6229147	+	AT1G05383	overlaps with AT1G18100
Chr1	Araport11	as_lncRNA	6325873	6326732	-	AT1G18382	overlaps with AT1G18380
Chr1	Araport11	as_lncRNA	6342940	6345787	-	AT1G18415	overlaps with AT1G18420
Chr1	Araport11	as_lncRNA	6461367	6462327	-	AT1G18735	overlaps with AT1G18730
Chr1	Araport11	as_lncRNA	6525324	6525994	+	AT1G05453	overlaps with AT1G18890
Chr1	Araport11	as_lncRNA	6610071	6610443	+	AT1G05467	overlaps with AT1G19130
Chr1	Araport11	as_lncRNA	6957968	6959124	+	AT1G05523	overlaps with AT1G20070
Chr1	Araport11	as_lncRNA	7094008	7094666	-	AT1G05557	overlaps with AT1G20470
Chr1	Araport11	as_lncRNA	7106128	7108108	+	AT1G20515	overlaps with AT1G20520
Chr1	Araport11	as_lncRNA	7174336	7176647	-	AT1G20691	overlaps with AT1G20690
Chr1	Araport11	as_lncRNA	7680822	7681663	-	AT1G05687	overlaps with AT1G21880
Chr1	Araport11	as_lncRNA	7772133	7772582	-	AT1G05703	overlaps with AT1G22050
Chr1	Araport11	as_lncRNA	7826380	7826621	-	AT1G05723	overlaps with AT1G22170
Chr1	Araport11	as_lncRNA	7829731	7830154	+	AT1G05727	overlaps with AT1G22180
Chr1	Araport11	as_lncRNA	7858868	7859504	-	AT1G05733	overlaps with AT1G22250
Chr1	Araport11	as_lncRNA	7949502	7950049	-	AT1G05753	overlaps with AT1G22500
Chr1	Araport11	as_lncRNA	7952142	7952470	+	AT1G05757	overlaps with AT1G22510
Chr1	Araport11	as_lncRNA	8029507	8029778	+	AT1G05763	overlaps with AT1G22700
Chr1	Araport11	as_lncRNA	8071789	8075020	+	AT1G05767	overlaps with AT1G22810
Chr1	Araport11	as_lncRNA	8079512	8079995	-	AT1G05773	overlaps with AT1G22840
Chr1	Araport11	as_lncRNA	8080698	8080937	+	AT1G05777	overlaps with AT1G22850
Chr1	Araport11	as_lncRNA	8197543	8198108	+	AT1G05787	overlaps with AT1G23110
Chr1	Araport11	as_lncRNA	8420941	8421628	-	AT1G05833	overlaps with AT1G23820
Chr1	Araport11	as_lncRNA	8423069	8424073	+	AT1G05837	overlaps with AT1G23830
Chr1	Araport11	as_lncRNA	8610507	8610821	-	AT1G05867	overlaps with AT1G24280
Chr1	Araport11	as_lncRNA	8613169	8614053	+	AT1G05873	overlaps with AT1G24290
Chr1	Araport11	as_lncRNA	8812695	8815264	+	AT1G25098	overlaps with AT1G25097
Chr1	Araport11	as_lncRNA	8835419	8836850	-	AT1G05927	overlaps with AT1G25211
Chr1	Araport11	as_lncRNA	8838445	8839139	+	AT1G05933	overlaps with AT1G25220
Chr1	Araport11	as_lncRNA	9020389	9020657	-	AT1G05973	overlaps with AT1G26090
Chr1	Araport11	as_lncRNA	9023037	9023508	+	AT1G05977	overlaps with AT1G26100
Chr1	Araport11	as_lncRNA	9065955	9071468	-	AT1G26208	overlaps with AT1G26210
Chr1	Araport11	as_lncRNA	9071058	9072273	-	AT1G26218	overlaps with AT1G26220
Chr1	Araport11	as_lncRNA	9158571	9159254	-	AT1G06003	overlaps with AT1G26500
Chr1	Araport11	as_lncRNA	9247263	9247559	-	AT1G06017	overlaps with AT1G26750
Chr1	Araport11	as_lncRNA	9483441	9483754	-	AT1G06083	overlaps with AT1G27300
Chr1	Araport11	as_lncRNA	9726607	9730424	-	AT1G27921	overlaps with AT1G27920
Chr1	Araport11	as_lncRNA	9967837	9968056	+	AT1G06153	overlaps with AT1G28390
Chr1	Araport11	as_lncRNA	10077923	10079643	-	AT1G28685	overlaps with AT1G28680
Chr1	Araport11	as_lncRNA	10134774	10135097	-	AT1G06207	overlaps with AT1G29040
Chr1	Araport11	as_lncRNA	10135454	10135947	-	AT1G06213	overlaps with AT1G29041
Chr1	Araport11	as_lncRNA	10138284	10138715	+	AT1G06217	overlaps with AT1G29050
Chr1	Araport11	as_lncRNA	10273931	10275765	-	AT1G29357	overlaps with AT1G29355
Chr1	Araport11	as_lncRNA	10300193	10300716	-	AT1G06227	overlaps with AT1G29418
Chr1	Araport11	as_lncRNA	10301646	10301987	+	AT1G06257	overlaps with AT1G29420
Chr1	Araport11	as_lncRNA	10426779	10429143	-	AT1G29785	overlaps with AT1G29780
Chr1	Araport11	as_lncRNA	10663332	10664763	+	AT1G30282	overlaps with AT1G30280
Chr1	Araport11	as_lncRNA	10789698	10790032	+	AT1G06337	overlaps with AT1G30475
Chr1	Araport11	as_lncRNA	11147007	11147252	+	AT1G06423	overlaps with AT1G31200
Chr1	Araport11	as_lncRNA	11271744	11273075	+	AT1G31485	overlaps with AT1G31490
Chr1	Araport11	as_lncRNA	11738297	11739319	-	AT1G06573	overlaps with AT1G32460
Chr1	Araport11	as_lncRNA	12118990	12126651	+	AT1G33415	overlaps with AT1G33420 and AT1G33430
Chr1	Araport11	as_lncRNA	12358198	12358531	+	AT1G06717	overlaps with AT1G34000
Chr1	Araport11	as_lncRNA	12550564	12550980	-	AT1G06753	overlaps with AT1G34370
Chr1	Araport11	as_lncRNA	12687105	12687401	-	AT1G06787	overlaps with AT1G34630
Chr1	Araport11	as_lncRNA	12751156	12752905	+	AT1G34844	overlaps with AT1G34842
Chr1	Araport11	as_lncRNA	13110517	13112832	-	AT1G35545	overlaps with AT1G35550 and AT1G35540
Chr1	Araport11	as_lncRNA	13701971	13702749	+	AT1G06977	overlaps with AT1G36390
Chr1	Araport11	as_lncRNA	14029923	14030768	+	AT1G36992	overlaps with AT1G36990
Chr1	Araport11	as_lncRNA	16780241	16786828	-	AT1G44125	overlaps with AT1G44120
Chr1	Araport11	as_lncRNA	17769036	17769837	-	AT1G07477	overlaps with AT1G48100
Chr1	Araport11	as_lncRNA	17854060	17855960	+	AT1G48315	overlaps with AT1G48320
Chr1	Araport11	as_lncRNA	18010497	18012888	+	AT1G48698	overlaps with AT1G48700
Chr1	Araport11	as_lncRNA	18112453	18112821	-	AT1G07513	overlaps with AT1G48960
Chr1	Araport11	as_lncRNA	18115790	18117008	+	AT1G07517	overlaps with AT1G48970
Chr1	Araport11	as_lncRNA	18268864	18269454	+	AT1G07547	overlaps with AT1G49360
Chr1	Araport11	as_lncRNA	18333188	18333581	-	AT1G07563	overlaps with AT1G49530
Chr1	Araport11	as_lncRNA	18333956	18334247	+	AT1G07567	overlaps with AT1G49540
Chr1	Araport11	as_lncRNA	18400187	18400806	-	AT1G07587	overlaps with AT1G49720
Chr1	Araport11	as_lncRNA	18517832	18518431	-	AT1G07603	overlaps with AT1G50010
Chr1	Araport11	as_lncRNA	18520004	18520624	+	AT1G07607	overlaps with AT1G50020
Chr1	Araport11	as_lncRNA	18686899	18687146	-	AT1G07637	overlaps with AT1G50440
Chr1	Araport11	as_lncRNA	18727554	18727851	+	AT1G07653	overlaps with AT1G50570
Chr1	Araport11	as_lncRNA	18772426	18772857	-	AT1G07663	overlaps with AT1G50660
Chr1	Araport11	as_lncRNA	18781828	18782687	-	AT1G07667	overlaps with AT1G50700
Chr1	Araport11	as_lncRNA	18866518	18866798	-	AT1G07693	overlaps with AT1G50900
Chr1	Araport11	as_lncRNA	18867704	18868089	+	AT1G07697	overlaps with AT1G50910
Chr1	Araport11	as_lncRNA	18879513	18879860	+	AT1G07703	overlaps with AT1G50940
Chr1	Araport11	as_lncRNA	19051674	19051922	-	AT1G07733	overlaps with AT1G51390
Chr1	Araport11	as_lncRNA	19052139	19052358	+	AT1G07737	overlaps with AT1G51400
Chr1	Araport11	as_lncRNA	19052719	19053731	-	AT1G07743	overlaps with AT1G51402
Chr1	Araport11	as_lncRNA	19117681	19118570	+	AT1G07753	overlaps with AT1G51550
Chr1	Araport11	as_lncRNA	19149454	19152288	+	AT1G51645	overlaps with AT1G51640
Chr1	Araport11	as_lncRNA	19490000	19490348	+	AT1G07803	overlaps with AT1G52340
Chr1	Araport11	as_lncRNA	19563480	19563813	+	AT1G07807	overlaps with AT1G52510
Chr1	Araport11	as_lncRNA	19569158	19569546	-	AT1G07813	overlaps with AT1G52530
Chr1	Araport11	as_lncRNA	19587618	19588924	-	AT1G07823	overlaps with AT1G52580
Chr1	Araport11	as_lncRNA	19787023	19787316	+	AT1G07853	overlaps with AT1G53100
Chr1	Araport11	as_lncRNA	19850201	19852127	+	AT1G53233	overlaps with AT1G53230
Chr1	Araport11	as_lncRNA	19925023	19925616	-	AT1G07877	overlaps with AT1G53400
Chr1	Araport11	as_lncRNA	19963067	19964105	+	AT1G07887	overlaps with AT1G53480
Chr1	Araport11	as_lncRNA	19967683	19969121	+	AT1G07893	overlaps with AT1G53500
Chr1	Araport11	as_lncRNA	20052416	20053149	-	AT1G07933	overlaps with AT1G53708
Chr1	Araport11	as_lncRNA	20083211	20084173	-	AT1G53801	overlaps with AT1G53800
Chr1	Araport11	as_lncRNA	20217732	20218221	+	AT1G07943	overlaps with AT1G54160
Chr1	Araport11	as_lncRNA	20288533	20290355	-	AT1G54355	overlaps with AT1G54350
Chr1	Araport11	as_lncRNA	20295409	20295717	+	AT1G07967	overlaps with AT1G54370
Chr1	Araport11	as_lncRNA	20415048	20415287	+	AT1G07983	overlaps with AT1G54690
Chr1	Araport11	as_lncRNA	20420189	20420554	+	AT1G07987	overlaps with AT1G54710
Chr1	Araport11	as_lncRNA	20440202	20440727	-	AT1G07993	overlaps with AT1G54780
Chr1	Araport11	as_lncRNA	20443101	20443349	+	AT1G07997	overlaps with AT1G54790
Chr1	Araport11	as_lncRNA	20452085	20452306	-	AT1G08003	overlaps with AT1G54830
Chr1	Araport11	as_lncRNA	20588319	20589100	-	AT1G08037	overlaps with AT1G55190
Chr1	Araport11	as_lncRNA	20617324	20618241	-	AT1G08043	overlaps with AT1G55265
Chr1	Araport11	as_lncRNA	20619552	20619881	+	AT1G08047	overlaps with AT1G55270
Chr1	Araport11	as_lncRNA	20884658	20885139	+	AT1G08073	overlaps with AT1G55860
Chr1	Araport11	as_lncRNA	20948161	20948969	+	AT1G08087	overlaps with AT1G56010
Chr1	Araport11	as_lncRNA	21022759	21024402	-	AT1G56165	overlaps with AT1G56160
Chr1	Araport11	as_lncRNA	21056401	21057815	+	AT1G56242	overlaps with AT1G56240
Chr1	Araport11	as_lncRNA	21213625	21215407	-	AT1G56612	overlaps with AT1G56610
Chr1	Araport11	as_lncRNA	22026927	22027168	-	AT1G08267	overlaps with AT1G59840
Chr1	Araport11	as_lncRNA	22029795	22030289	+	AT1G08273	overlaps with AT1G59850
Chr1	Araport11	as_lncRNA	22263727	22264033	-	AT1G08317	overlaps with AT1G60420
Chr1	Araport11	as_lncRNA	22278282	22278557	-	AT1G08323	overlaps with AT1G60460
Chr1	Araport11	as_lncRNA	22294362	22297374	-	AT1G60505	overlaps with AT1G60510
Chr1	Araport11	as_lncRNA	22299435	22301441	-	AT1G60525	overlaps with AT1G60530
Chr1	Araport11	as_lncRNA	22302306	22305242	+	AT1G60545	overlaps with AT1G60540
Chr1	Araport11	as_lncRNA	22346819	22347046	-	AT1G08333	overlaps with AT1G60670
Chr1	Araport11	as_lncRNA	22662953	22664539	+	AT1G08387	overlaps with AT1G61420
Chr1	Araport11	as_lncRNA	22975698	22976479	+	AT1G08477	overlaps with AT1G62180
Chr1	Araport11	as_lncRNA	23173397	23173691	-	AT1G08533	overlaps with AT1G62580
Chr1	Araport11	as_lncRNA	23177935	23178261	+	AT1G08537	overlaps with AT1G62590
Chr1	Araport11	as_lncRNA	23179399	23180068	-	AT1G08543	overlaps with AT1G62600
Chr1	Araport11	as_lncRNA	23228101	23228395	-	AT1G08557	overlaps with AT1G62720
Chr1	Araport11	as_lncRNA	23253055	23253291	-	AT1G08563	overlaps with AT1G62790
Chr1	Araport11	as_lncRNA	23254364	23254714	+	AT1G08567	overlaps with AT1G62800
Chr1	Araport11	as_lncRNA	23271551	23271796	-	AT1G08577	overlaps with AT1G62840
Chr1	Araport11	as_lncRNA	23663842	23664431	+	AT1G08633	overlaps with AT1G63770
Chr1	Araport11	as_lncRNA	23742766	23743009	-	AT1G08647	overlaps with AT1G63980
Chr1	Araport11	as_lncRNA	23825650	23826227	+	AT1G08657	overlaps with AT1G64190
Chr1	Araport11	as_lncRNA	23854908	23855121	+	AT1G08667	overlaps with AT1G64280
Chr1	Araport11	as_lncRNA	23974108	23974424	+	AT1G08707	overlaps with AT1G64561
Chr1	Araport11	as_lncRNA	24019473	24019879	-	AT1G08723	overlaps with AT1G64630
Chr1	Araport11	as_lncRNA	24051980	24052457	-	AT1G08727	overlaps with AT1G64740
Chr1	Araport11	as_lncRNA	24135163	24135658	+	AT1G08733	overlaps with AT1G64970
Chr1	Araport11	as_lncRNA	24297810	24298562	+	AT1G08753	overlaps with AT1G65420
Chr1	Araport11	as_lncRNA	24555535	24555858	-	AT1G08797	overlaps with AT1G65960
Chr1	Araport11	as_lncRNA	24558112	24558312	+	AT1G08803	overlaps with AT1G65970
Chr1	Araport11	as_lncRNA	24945530	24945945	+	AT1G08853	overlaps with AT1G66870
Chr1	Araport11	as_lncRNA	24948393	24953988	-	AT1G08857	overlaps with AT1G66880
Chr1	Araport11	as_lncRNA	25213853	25215290	-	AT1G67328	overlaps with AT1G67330
Chr1	Araport11	as_lncRNA	25238395	25239330	+	AT1G67365	overlaps with AT1G67370
Chr1	Araport11	as_lncRNA	25417378	25420252	+	AT1G67792	overlaps with AT1G67790
Chr1	Araport11	as_lncRNA	25480035	25480431	+	AT1G08963	overlaps with AT1G67950
Chr1	Araport11	as_lncRNA	25596554	25598435	-	AT1G08973	overlaps with AT1G68290
Chr1	Araport11	as_lncRNA	25772220	25772475	+	AT1G09003	overlaps with AT1G68640
Chr1	Araport11	as_lncRNA	25921325	25926267	+	AT1G09023	overlaps with AT1G68940
Chr1	Araport11	as_lncRNA	26041040	26042686	+	AT1G09053	overlaps with AT1G69270
Chr1	Araport11	as_lncRNA	26161551	26162791	+	AT1G69572	overlaps with AT1G69570
Chr1	Araport11	as_lncRNA	26175566	26179389	-	AT1G69587	overlaps with AT1G69588
Chr1	Araport11	as_lncRNA	26506106	26506404	+	AT1G09167	overlaps with AT1G70340
Chr1	Araport11	as_lncRNA	26687058	26688031	-	AT1G09193	overlaps with AT1G70760
Chr1	Araport11	as_lncRNA	26861970	26862189	+	AT1G09223	overlaps with AT1G71260
Chr1	Araport11	as_lncRNA	26878908	26879174	+	AT1G09233	overlaps with AT1G71310
Chr1	Araport11	as_lncRNA	26920412	26920721	-	AT1G09247	overlaps with AT1G71430
Chr1	Araport11	as_lncRNA	26932071	26932467	-	AT1G09253	overlaps with AT1G71480
Chr1	Araport11	as_lncRNA	26933746	26934487	+	AT1G09257	overlaps with AT1G71490
Chr1	Araport11	as_lncRNA	26939500	26942952	-	AT1G71528	overlaps with AT1G71530
Chr1	Araport11	as_lncRNA	27017801	27018315	-	AT1G71828	overlaps with AT1G71830
Chr1	Araport11	as_lncRNA	27029396	27029649	-	AT1G09267	overlaps with AT1G71865
Chr1	Araport11	as_lncRNA	27080516	27081002	+	AT1G09287	overlaps with AT1G71950
Chr1	Araport11	as_lncRNA	27119300	27119697	+	AT1G09297	overlaps with AT1G72070
Chr1	Araport11	as_lncRNA	27338062	27338829	-	AT1G09327	overlaps with AT1G72600
Chr1	Araport11	as_lncRNA	27414295	27416050	-	AT1G72852	overlaps with AT1G72850
Chr1	Araport11	as_lncRNA	27416114	27419122	+	AT1G72855	overlaps with AT1G72860
Chr1	Araport11	as_lncRNA	27474040	27474582	-	AT1G09363	overlaps with AT1G73030
Chr1	Araport11	as_lncRNA	27491349	27491576	-	AT1G09367	overlaps with AT1G73100
Chr1	Araport11	as_lncRNA	27611616	27611913	-	AT1G09383	overlaps with AT1G73440
Chr1	Araport11	as_lncRNA	27909074	27910019	-	AT1G74205	overlaps with AT1G74210
Chr1	Araport11	as_lncRNA	27935393	27935621	-	AT1G09433	overlaps with AT1G74300
Chr1	Araport11	as_lncRNA	27954364	27954690	-	AT1G09437	overlaps with AT1G74360
Chr1	Araport11	as_lncRNA	27958293	27958633	+	AT1G09443	overlaps with AT1G74370
Chr1	Araport11	as_lncRNA	27966970	27967335	-	AT1G09447	overlaps with AT1G74410
Chr1	Araport11	as_lncRNA	27967724	27968657	+	AT1G09453	overlaps with AT1G74420
Chr1	Araport11	as_lncRNA	27975520	27975752	-	AT1G09457	overlaps with AT1G74430
Chr1	Araport11	as_lncRNA	27979692	27980004	+	AT1G09463	overlaps with AT1G74440
Chr1	Araport11	as_lncRNA	28013118	28015826	-	AT1G74545	overlaps with AT1G74540
Chr1	Araport11	as_lncRNA	28016582	28017771	-	AT1G09487	overlaps with AT1G74550
Chr1	Araport11	as_lncRNA	28079103	28079431	-	AT1G09513	overlaps with AT1G74730
Chr1	Araport11	as_lncRNA	28134653	28135270	-	AT1G09517	overlaps with AT1G74900
Chr1	Araport11	as_lncRNA	28186684	28186903	-	AT1G09523	overlaps with AT1G75080
Chr1	Araport11	as_lncRNA	28188388	28188831	+	AT1G09527	overlaps with AT1G75090
Chr1	Araport11	as_lncRNA	28213926	28214368	-	AT1G09537	overlaps with AT1G75170
Chr1	Araport11	as_lncRNA	28216360	28219186	+	AT1G09543	overlaps with AT1G75180
Chr1	Araport11	as_lncRNA	28254820	28257236	-	AT1G75295	overlaps with AT1G75290 and AT1G75300
Chr1	Araport11	as_lncRNA	28314311	28314700	-	AT1G09553	overlaps with AT1G75440
Chr1	Araport11	as_lncRNA	28318139	28318355	+	AT1G09557	overlaps with AT1G75450
Chr1	Araport11	as_lncRNA	28492958	28494327	-	AT1G75891	overlaps with AT1G75890
Chr1	Araport11	as_lncRNA	28639806	28640505	-	AT1G09617	overlaps with AT1G76350
Chr1	Araport11	as_lncRNA	28645595	28645885	+	AT1G09623	overlaps with AT1G76360
Chr1	Araport11	as_lncRNA	28655208	28658086	-	AT1G09627	overlaps with AT1G76390
Chr1	Araport11	as_lncRNA	28782714	28782958	+	AT1G09637	overlaps with AT1G76700
Chr1	Araport11	as_lncRNA	28811060	28811379	-	AT1G09657	overlaps with AT1G76750
Chr1	Araport11	as_lncRNA	28812404	28812786	+	AT1G09663	overlaps with AT1G76760
Chr1	Araport11	as_lncRNA	28816622	28817970	-	AT1G09673	overlaps with AT1G76780
Chr1	Araport11	as_lncRNA	28848219	28848743	-	AT1G09677	overlaps with AT1G76850
Chr1	Araport11	as_lncRNA	28865305	28868258	-	AT1G76878	overlaps with AT1G76880
Chr1	Araport11	as_lncRNA	28874691	28874999	+	AT1G76892	overlaps with AT1G76890
Chr1	Araport11	as_lncRNA	28978405	28978724	+	AT1G09713	overlaps with AT1G77122
Chr1	Araport11	as_lncRNA	29255026	29255375	-	AT1G09757	overlaps with AT1G77800
Chr1	Araport11	as_lncRNA	29322411	29323358	+	AT1G77992	overlaps with AT1G77990
Chr1	Araport11	as_lncRNA	29351472	29351820	+	AT1G09777	overlaps with AT1G78060
Chr1	Araport11	as_lncRNA	29400094	29401675	-	AT1G09783	overlaps with AT1G78130
Chr1	Araport11	as_lncRNA	29450551	29452415	+	AT1G78265	overlaps with AT1G78270
Chr1	Araport11	as_lncRNA	29549838	29550185	-	AT1G09823	overlaps with AT1G78570
Chr1	Araport11	as_lncRNA	29557848	29558276	+	AT1G09827	overlaps with AT1G78580
Chr1	Araport11	as_lncRNA	29906697	29909441	+	AT1G09863	overlaps with AT1G79510
Chr1	Araport11	as_lncRNA	29915662	29916410	+	AT1G79529	overlaps with AT1G79530
Chr1	Araport11	as_lncRNA	29975928	29976318	-	AT1G09897	overlaps with AT1G79660
Chr1	Araport11	as_lncRNA	29992705	29993059	+	AT1G09907	overlaps with AT1G79700
Chr1	Araport11	as_lncRNA	29998363	29998796	+	AT1G09913	overlaps with AT1G79720
Chr1	Araport11	as_lncRNA	30021177	30021681	-	AT1G09917	overlaps with AT1G79810
Chr1	Araport11	as_lncRNA	30041286	30041963	+	AT1G09927	overlaps with AT1G79850
Chr1	Araport11	as_lncRNA	30194605	30198071	-	AT1G80325	overlaps with AT1G80320
Chr1	Araport11	as_lncRNA	30228005	30228447	+	AT1G09963	overlaps with AT1G80410
Chr1	Araport11	as_lncRNA	30386733	30387446	+	AT1G09987	overlaps with AT1G80850
Chr1	Araport11	as_lncRNA	30397172	30397804	-	AT1G09993	overlaps with AT1G80890
Chr2	Araport11	as_lncRNA	84873	85086	+	AT2G03895	overlaps with AT2G01110
Chr2	Araport11	as_lncRNA	148875	149493	+	AT2G03925	overlaps with AT2G01290
Chr2	Araport11	as_lncRNA	175202	176330	+	AT2G03975	overlaps with AT2G01410
Chr2	Araport11	as_lncRNA	281598	281921	+	AT2G04065	overlaps with AT2G01630
Chr2	Araport11	as_lncRNA	388080	388313	-	AT2G04125	overlaps with AT2G01860
Chr2	Araport11	as_lncRNA	390175	390454	+	AT2G04145	overlaps with AT2G01870
Chr2	Araport11	as_lncRNA	763851	764640	-	AT2G04285	overlaps with AT2G02720
Chr2	Araport11	as_lncRNA	771551	772360	+	AT2G04295	overlaps with AT2G02750
Chr2	Araport11	as_lncRNA	1043766	1044608	+	AT2G04525	overlaps with AT2G03460
Chr2	Araport11	as_lncRNA	1102120	1102649	+	AT2G04535	overlaps with AT2G03620
Chr2	Araport11	as_lncRNA	1120903	1121337	-	AT2G04545	overlaps with AT2G03680
Chr2	Araport11	as_lncRNA	1122594	1122824	+	AT2G04555	overlaps with AT2G03690
Chr2	Araport11	as_lncRNA	1403806	1406935	+	AT2G04725	overlaps with AT2G04160
Chr2	Araport11	as_lncRNA	1480219	1482007	+	AT2G04755	overlaps with AT2G04280
Chr2	Araport11	as_lncRNA	1705148	1706465	-	AT2G04852	overlaps with AT2G04850
Chr2	Araport11	as_lncRNA	2214334	2217448	+	AT2G05812	overlaps with AT2G05810
Chr2	Araport11	as_lncRNA	2263124	2264543	-	AT2G05914	overlaps with AT2G05915
Chr2	Araport11	as_lncRNA	2996582	2998054	+	AT2G07213	overlaps with AT2G07215
Chr2	Araport11	as_lncRNA	3247993	3248209	-	AT2G05145	overlaps with AT2G07749
Chr2	Araport11	as_lncRNA	3340632	3341062	+	AT2G05245	overlaps with AT2G07692
Chr2	Araport11	as_lncRNA	3348153	3348485	-	AT2G05255	overlaps with AT2G07785
Chr2	Araport11	as_lncRNA	3669906	3672766	-	AT2G09795	overlaps with AT2G09800
Chr2	Araport11	as_lncRNA	4301932	4303080	+	AT2G10921	overlaps with AT2G10920
Chr2	Araport11	as_lncRNA	4789211	4789907	-	AT2G11852	overlaps with AT2G11851
Chr2	Araport11	as_lncRNA	5692090	5693030	+	AT2G13665	overlaps with AT2G13660
Chr2	Araport11	as_lncRNA	5953196	5954039	+	AT2G14115	overlaps with AT2G14120
Chr2	Araport11	as_lncRNA	6279607	6279875	-	AT2G06215	overlaps with AT2G14680
Chr2	Araport11	as_lncRNA	6832216	6833704	+	AT2G06465	overlaps with AT2G15690
Chr2	Araport11	as_lncRNA	6934523	6934793	+	AT2G06525	overlaps with AT2G15910
Chr2	Araport11	as_lncRNA	7039677	7040592	+	AT2G16245	overlaps with AT2G16250
Chr2	Araport11	as_lncRNA	7074714	7074917	-	AT2G06615	overlaps with AT2G16365
Chr2	Araport11	as_lncRNA	7333371	7333810	-	AT2G06795	overlaps with AT2G16910
Chr2	Araport11	as_lncRNA	7821596	7822100	-	AT2G07015	overlaps with AT2G17972
Chr2	Araport11	as_lncRNA	8197114	8198103	+	AT2G18917	overlaps with AT2G18920 and AT2G18915
Chr2	Araport11	as_lncRNA	8375031	8375890	+	AT2G07175	overlaps with AT2G19340
Chr2	Araport11	as_lncRNA	8470244	8471815	+	AT2G19572	overlaps with AT2G19570
Chr2	Araport11	as_lncRNA	8473605	8475221	+	AT2G19582	overlaps with AT2G19580
Chr2	Araport11	as_lncRNA	8488284	8488614	+	AT2G07245	overlaps with AT2G19620
Chr2	Araport11	as_lncRNA	8726067	8726447	-	AT2G07265	overlaps with AT2G20230
Chr2	Araport11	as_lncRNA	8728701	8729253	+	AT2G07275	overlaps with AT2G20240
Chr2	Araport11	as_lncRNA	8835103	8836069	+	AT2G07305	overlaps with AT2G20500
Chr2	Araport11	as_lncRNA	8926399	8927650	-	AT2G07325	overlaps with AT2G20710
Chr2	Araport11	as_lncRNA	8927868	8929599	+	AT2G07335	overlaps with AT2G20720
Chr2	Araport11	as_lncRNA	8988633	8988845	-	AT2G07345	overlaps with AT2G20890
Chr2	Araport11	as_lncRNA	8990844	8991189	+	AT2G07355	overlaps with AT2G20900
Chr2	Araport11	as_lncRNA	9076289	9077494	+	AT2G21187	overlaps with AT2G21185
Chr2	Araport11	as_lncRNA	9353383	9354717	+	AT2G07475	overlaps with AT2G21950
Chr2	Araport11	as_lncRNA	9362602	9362910	-	AT2G07485	overlaps with AT2G22000
Chr2	Araport11	as_lncRNA	9363817	9364086	+	AT2G07495	overlaps with AT2G22010
Chr2	Araport11	as_lncRNA	9389725	9390526	+	AT2G07515	overlaps with AT2G22090
Chr2	Araport11	as_lncRNA	9604211	9604488	-	AT2G07805	overlaps with AT2G22610
Chr2	Araport11	as_lncRNA	9664200	9666686	+	AT2G07845	overlaps with AT2G22740
Chr2	Araport11	as_lncRNA	9721132	9721960	+	AT2G22821	overlaps with AT2G22820
Chr2	Araport11	as_lncRNA	9732464	9733623	+	AT2G07850	overlaps with AT2G22850
Chr2	Araport11	as_lncRNA	9770700	9771553	-	AT2G22955	overlaps with AT2G22960
Chr2	Araport11	as_lncRNA	9829803	9830074	+	AT2G07875	overlaps with AT2G23090
Chr2	Araport11	as_lncRNA	10063065	10064078	+	AT2G23672	overlaps with AT2G23670
Chr2	Araport11	as_lncRNA	10097774	10099646	-	AT2G07950	overlaps with AT2G23740
Chr2	Araport11	as_lncRNA	10186404	10186668	+	AT2G07965	overlaps with AT2G23945
Chr2	Araport11	as_lncRNA	10344296	10345523	-	AT2G08000	overlaps with AT2G24310
Chr2	Araport11	as_lncRNA	10361342	10361859	-	AT2G08020	overlaps with AT2G24350
Chr2	Araport11	as_lncRNA	10366098	10366614	+	AT2G08025	overlaps with AT2G24360
Chr2	Araport11	as_lncRNA	10425306	10427661	-	AT2G24545	overlaps with AT2G24540
Chr2	Araport11	as_lncRNA	10541727	10549493	-	AT2G24755	overlaps with AT2G24750 and AT2G24760
Chr2	Araport11	as_lncRNA	10576287	10576766	-	AT2G08060	overlaps with AT2G24820
Chr2	Araport11	as_lncRNA	10720032	10720553	-	AT2G08120	overlaps with AT2G25170
Chr2	Araport11	as_lncRNA	10762742	10763264	+	AT2G08130	overlaps with AT2G25280
Chr2	Araport11	as_lncRNA	11220708	11221535	+	AT2G26355	overlaps with AT2G26360
Chr2	Araport11	as_lncRNA	11350517	11351293	+	AT2G26692	overlaps with AT2G26690
Chr2	Araport11	as_lncRNA	11460219	11461021	+	AT2G26882	overlaps with AT2G26880
Chr2	Araport11	as_lncRNA	12544285	12544515	+	AT2G08335	overlaps with AT2G29190
Chr2	Araport11	as_lncRNA	12618261	12618896	+	AT2G08340	overlaps with AT2G29420
Chr2	Araport11	as_lncRNA	12639500	12640959	-	AT2G08345	overlaps with AT2G29525
Chr2	Araport11	as_lncRNA	12641404	12641923	+	AT2G08350	overlaps with AT2G29530
Chr2	Araport11	as_lncRNA	12937012	12939746	+	AT2G30362	overlaps with AT2G30360
Chr2	Araport11	as_lncRNA	13041977	13042396	+	AT2G08405	overlaps with AT2G30615
Chr2	Araport11	as_lncRNA	13176007	13176207	-	AT2G08420	overlaps with AT2G30950
Chr2	Araport11	as_lncRNA	13177942	13178385	+	AT2G08425	overlaps with AT2G30960
Chr2	Araport11	as_lncRNA	13186544	13187253	-	AT2G30984	overlaps with AT2G30985
Chr2	Araport11	as_lncRNA	13383986	13385739	+	AT2G08435	overlaps with AT2G31390
Chr2	Araport11	as_lncRNA	13439460	13439753	+	AT2G08440	overlaps with AT2G31570
Chr2	Araport11	as_lncRNA	13497140	13502275	-	AT2G31751	overlaps with AT2G31750
Chr2	Araport11	as_lncRNA	13519805	13520069	-	AT2G08470	overlaps with AT2G31790
Chr2	Araport11	as_lncRNA	13558573	13559164	+	AT2G08480	overlaps with AT2G31890
Chr2	Araport11	as_lncRNA	13671841	13673376	+	AT2G32179	overlaps with AT2G32180
Chr2	Araport11	as_lncRNA	13726299	13726700	-	AT2G32315	overlaps with AT2G32310
Chr2	Araport11	as_lncRNA	13787531	13787741	-	AT2G08520	overlaps with AT2G32470
Chr2	Araport11	as_lncRNA	13789829	13790077	+	AT2G08525	overlaps with AT2G32480
Chr2	Araport11	as_lncRNA	13851146	13851371	-	AT2G08530	overlaps with AT2G32650
Chr2	Araport11	as_lncRNA	14021653	14025239	-	AT2G33051	overlaps with AT2G33050
Chr2	Araport11	as_lncRNA	14151929	14152661	-	AT2G08575	overlaps with AT2G33390
Chr2	Araport11	as_lncRNA	14234065	14234517	-	AT2G08595	overlaps with AT2G33620
Chr2	Araport11	as_lncRNA	14305008	14306053	-	AT2G33815	overlaps with AT2G33810
Chr2	Araport11	as_lncRNA	14317684	14318201	-	AT2G08635	overlaps with AT2G33845
Chr2	Araport11	as_lncRNA	14319617	14320199	+	AT2G08640	overlaps with AT2G33847
Chr2	Araport11	as_lncRNA	14393410	14394346	+	AT2G08650	overlaps with AT2G34080
Chr2	Araport11	as_lncRNA	14431358	14432022	+	AT2G08655	overlaps with AT2G34180
Chr2	Araport11	as_lncRNA	14514311	14515918	+	AT2G08660	overlaps with AT2G34390
Chr2	Araport11	as_lncRNA	14522522	14523568	+	AT2G08665	overlaps with AT2G34420
Chr2	Araport11	as_lncRNA	14667355	14667571	-	AT2G08680	overlaps with AT2G34770
Chr2	Araport11	as_lncRNA	14674048	14674585	+	AT2G08685	overlaps with AT2G34790
Chr2	Araport11	as_lncRNA	14726851	14728028	-	AT2G08695	overlaps with AT2G34910
Chr2	Araport11	as_lncRNA	14730929	14731137	+	AT2G08700	overlaps with AT2G34920
Chr2	Araport11	as_lncRNA	14899911	14900597	+	AT2G08730	overlaps with AT2G35420
Chr2	Araport11	as_lncRNA	14982534	14984339	-	AT2G35637	overlaps with AT2G35640
Chr2	Araport11	as_lncRNA	14989786	14990082	-	AT2G08740	overlaps with AT2G35660
Chr2	Araport11	as_lncRNA	14998444	14998752	+	AT2G08750	overlaps with AT2G35680
Chr2	Araport11	as_lncRNA	15023487	15026812	+	AT2G35738	overlaps with AT2G35740
Chr2	Araport11	as_lncRNA	15059337	15061100	-	AT2G35859	overlaps with AT2G35860
Chr2	Araport11	as_lncRNA	15090519	15091764	+	AT2G35945	overlaps with AT2G35940
Chr2	Araport11	as_lncRNA	15192766	15193609	-	AT2G08780	overlaps with AT2G36220
Chr2	Araport11	as_lncRNA	15271877	15272103	+	AT2G08795	overlaps with AT2G36400
Chr2	Araport11	as_lncRNA	15359785	15360137	-	AT2G08815	overlaps with AT2G36650
Chr2	Araport11	as_lncRNA	15420065	15422088	+	AT2G36792	overlaps with AT2G36790
Chr2	Araport11	as_lncRNA	15671397	15672248	+	AT2G08865	overlaps with AT2G37340
Chr2	Araport11	as_lncRNA	15673559	15676081	+	AT2G37362	overlaps with AT2G37360
Chr2	Araport11	as_lncRNA	15756722	15758279	+	AT2G37555	overlaps with AT2G37550
Chr2	Araport11	as_lncRNA	16067894	16068098	+	AT2G08960	overlaps with AT2G38340
Chr2	Araport11	as_lncRNA	16108698	16108969	-	AT2G08965	overlaps with AT2G38470
Chr2	Araport11	as_lncRNA	16400296	16400711	-	AT2G09025	overlaps with AT2G39270
Chr2	Araport11	as_lncRNA	16671195	16672443	-	AT2G09090	overlaps with AT2G39930
Chr2	Araport11	as_lncRNA	16708056	16709563	+	AT2G40008	overlaps with AT2G40010
Chr2	Araport11	as_lncRNA	16987872	16988144	-	AT2G09175	overlaps with AT2G40720
Chr2	Araport11	as_lncRNA	17012394	17013048	-	AT2G09190	overlaps with AT2G40765
Chr2	Araport11	as_lncRNA	17034917	17035503	+	AT2G09200	overlaps with AT2G40815
Chr2	Araport11	as_lncRNA	17059544	17060072	+	AT2G09205	overlaps with AT2G40890
Chr2	Araport11	as_lncRNA	17140408	17141016	-	AT2G09225	overlaps with AT2G41110
Chr2	Araport11	as_lncRNA	17142030	17142298	+	AT2G09230	overlaps with AT2G41120
Chr2	Araport11	as_lncRNA	17164869	17166229	-	AT2G41178	overlaps with AT2G41180
Chr2	Araport11	as_lncRNA	17397489	17398061	-	AT2G09300	overlaps with AT2G41705
Chr2	Araport11	as_lncRNA	17401171	17402700	+	AT2G09305	overlaps with AT2G41710
Chr2	Araport11	as_lncRNA	17425588	17425918	+	AT2G09310	overlaps with AT2G41770
Chr2	Araport11	as_lncRNA	17514406	17514615	+	AT2G09325	overlaps with AT2G41960
Chr2	Araport11	as_lncRNA	17572719	17574482	-	AT2G09335	overlaps with AT2G42150
Chr2	Araport11	as_lncRNA	17595898	17596100	+	AT2G09345	overlaps with AT2G42230
Chr2	Araport11	as_lncRNA	17599330	17601863	+	AT2G42247	overlaps with AT2G42250
Chr2	Araport11	as_lncRNA	17612726	17613406	+	AT2G09350	overlaps with AT2G42280
Chr2	Araport11	as_lncRNA	17633566	17633912	+	AT2G09370	overlaps with AT2G42330
Chr2	Araport11	as_lncRNA	17640621	17645998	-	AT2G42365	overlaps with AT2G42360 and AT2G42370
Chr2	Araport11	as_lncRNA	17822258	17824975	-	AT2G42835	overlaps with AT2G42830
Chr2	Araport11	as_lncRNA	17948353	17948670	-	AT2G09425	overlaps with AT2G43160
Chr2	Araport11	as_lncRNA	17968981	17969762	+	AT2G09430	overlaps with AT2G43235
Chr2	Araport11	as_lncRNA	17996262	17996462	-	AT2G09435	overlaps with AT2G43310
Chr2	Araport11	as_lncRNA	17998331	17999567	+	AT2G09440	overlaps with AT2G43320
Chr2	Araport11	as_lncRNA	18008822	18009202	+	AT2G09455	overlaps with AT2G43350
Chr2	Araport11	as_lncRNA	18025969	18026380	+	AT2G09470	overlaps with AT2G43410
Chr2	Araport11	as_lncRNA	18098686	18099024	+	AT2G09495	overlaps with AT2G43640
Chr2	Araport11	as_lncRNA	18138686	18138952	-	AT2G09500	overlaps with AT2G43790
Chr2	Araport11	as_lncRNA	18158745	18159100	-	AT2G09505	overlaps with AT2G43840
Chr2	Araport11	as_lncRNA	18241870	18242256	-	AT2G09510	overlaps with AT2G44100
Chr2	Araport11	as_lncRNA	18295758	18297860	-	AT2G44255	overlaps with AT2G44260
Chr2	Araport11	as_lncRNA	18466053	18471304	-	AT2G44798	overlaps with AT2G44800
Chr2	Araport11	as_lncRNA	18499560	18499765	-	AT2G09560	overlaps with AT2G44850
Chr2	Araport11	as_lncRNA	18501637	18501859	+	AT2G09565	overlaps with AT2G44860
Chr2	Araport11	as_lncRNA	18682089	18684072	-	AT2G45315	overlaps with AT2G45310
Chr2	Araport11	as_lncRNA	18698747	18699174	-	AT2G09605	overlaps with AT2G45360
Chr2	Araport11	as_lncRNA	18702738	18703101	+	AT2G09610	overlaps with AT2G45380
Chr2	Araport11	as_lncRNA	18756673	18757928	-	AT2G09640	overlaps with AT2G45530
Chr2	Araport11	as_lncRNA	18768025	18768224	+	AT2G09645	overlaps with AT2G45540
Chr2	Araport11	as_lncRNA	18820265	18821944	+	AT2G45685	overlaps with AT2G45680
Chr2	Araport11	as_lncRNA	18834709	18835461	-	AT2G09660	overlaps with AT2G45720
Chr2	Araport11	as_lncRNA	18858184	18859278	+	AT2G09665	overlaps with AT2G45800
Chr2	Araport11	as_lncRNA	18982183	18982649	-	AT2G09710	overlaps with AT2G46225
Chr2	Araport11	as_lncRNA	19126134	19129105	-	AT2G46572	overlaps with AT2G46570
Chr2	Araport11	as_lncRNA	19137869	19138359	+	AT2G09740	overlaps with AT2G46610
Chr2	Araport11	as_lncRNA	19366758	19367274	-	AT2G09805	overlaps with AT2G47170
Chr2	Araport11	as_lncRNA	19441002	19441694	-	AT2G09885	overlaps with AT2G47380
Chr2	Araport11	as_lncRNA	19445346	19445616	+	AT2G09895	overlaps with AT2G47390
Chr2	Araport11	as_lncRNA	19484345	19484679	+	AT2G09905	overlaps with AT2G47480
Chr2	Araport11	as_lncRNA	19510548	19510832	-	AT2G09925	overlaps with AT2G47550
Chr2	Araport11	as_lncRNA	19512021	19512259	+	AT2G09935	overlaps with AT2G47560
Chr2	Araport11	as_lncRNA	19517593	19518626	-	AT2G09945	overlaps with AT2G47580
Chr2	Araport11	as_lncRNA	19609961	19610962	+	AT2G47895	overlaps with AT2G47900
Chr2	Araport11	as_lncRNA	19637400	19637955	+	AT2G09975	overlaps with AT2G47990
Chr3	Araport11	as_lncRNA	46718	48296	+	AT3G01142	overlaps with AT3G01140
Chr3	Araport11	as_lncRNA	69854	71415	+	AT3G01202	overlaps with AT3G01200
Chr3	Araport11	as_lncRNA	182977	183321	+	AT3G01035	overlaps with AT3G01470
Chr3	Araport11	as_lncRNA	235419	236463	+	AT3G01045	overlaps with AT3G01620
Chr3	Araport11	as_lncRNA	296024	296228	-	AT3G01055	overlaps with AT3G01830
Chr3	Araport11	as_lncRNA	320667	321173	+	AT3G01065	overlaps with AT3G01930
Chr3	Araport11	as_lncRNA	618598	618807	-	AT3G01165	overlaps with AT3G02840
Chr3	Araport11	as_lncRNA	649763	650933	-	AT3G01205	overlaps with AT3G02910
Chr3	Araport11	as_lncRNA	652090	652330	+	AT3G01215	overlaps with AT3G02920
Chr3	Araport11	as_lncRNA	916306	918887	-	AT3G03702	overlaps with AT3G03700
Chr3	Araport11	as_lncRNA	1009803	1010048	+	AT3G01375	overlaps with AT3G03920
Chr3	Araport11	as_lncRNA	1226673	1226923	-	AT3G01485	overlaps with AT3G04550
Chr3	Araport11	as_lncRNA	1228213	1228436	+	AT3G01495	overlaps with AT3G04560
Chr3	Araport11	as_lncRNA	1313893	1314127	-	AT3G01505	overlaps with AT3G04790
Chr3	Araport11	as_lncRNA	1320713	1321173	-	AT3G01515	overlaps with AT3G04810
Chr3	Araport11	as_lncRNA	1389431	1389865	-	AT3G01545	overlaps with AT3G05010
Chr3	Araport11	as_lncRNA	1545105	1545304	-	AT3G01635	overlaps with AT3G05380
Chr3	Araport11	as_lncRNA	1709436	1709640	-	AT3G01745	overlaps with AT3G05760
Chr3	Araport11	as_lncRNA	1710192	1710428	+	AT3G01755	overlaps with AT3G05770
Chr3	Araport11	as_lncRNA	1755886	1756147	+	AT3G01795	overlaps with AT3G05880
Chr3	Araport11	as_lncRNA	1760905	1764212	+	AT3G05905	overlaps with AT3G05900
Chr3	Araport11	as_lncRNA	1770239	1773461	-	AT3G05932	overlaps with AT3G05930
Chr3	Araport11	as_lncRNA	2143531	2143915	-	AT3G01895	overlaps with AT3G06780
Chr3	Araport11	as_lncRNA	2195001	2195294	+	AT3G01915	overlaps with AT3G06960
Chr3	Araport11	as_lncRNA	2254434	2254936	-	AT3G01935	overlaps with AT3G07120
Chr3	Araport11	as_lncRNA	2281851	2282074	-	AT3G01945	overlaps with AT3G07170
Chr3	Araport11	as_lncRNA	2393933	2394690	+	AT3G01995	overlaps with AT3G07510
Chr3	Araport11	as_lncRNA	2416485	2416737	+	AT3G02015	overlaps with AT3G07568
Chr3	Araport11	as_lncRNA	2424354	2424597	+	AT3G02025	overlaps with AT3G07600
Chr3	Araport11	as_lncRNA	2458637	2459047	-	AT3G02035	overlaps with AT3G07690
Chr3	Araport11	as_lncRNA	2709438	2709811	+	AT3G02085	overlaps with AT3G08900
Chr3	Araport11	as_lncRNA	2782125	2782365	-	AT3G02095	overlaps with AT3G09085
Chr3	Araport11	as_lncRNA	2785492	2785691	+	AT3G02105	overlaps with AT3G09090
Chr3	Araport11	as_lncRNA	2858157	2858468	-	AT3G02165	overlaps with AT3G09300
Chr3	Araport11	as_lncRNA	2972175	2972751	-	AT3G02215	overlaps with AT3G09690
Chr3	Araport11	as_lncRNA	2975231	2975660	+	AT3G02225	overlaps with AT3G09700
Chr3	Araport11	as_lncRNA	3136920	3137160	-	AT3G02275	overlaps with AT3G10140
Chr3	Araport11	as_lncRNA	3138532	3138857	+	AT3G02285	overlaps with AT3G10150
Chr3	Araport11	as_lncRNA	3162304	3162521	-	AT3G02295	overlaps with AT3G10220
Chr3	Araport11	as_lncRNA	3165840	3166090	+	AT3G02305	overlaps with AT3G10230
Chr3	Araport11	as_lncRNA	3322380	3322675	+	AT3G02365	overlaps with AT3G10630
Chr3	Araport11	as_lncRNA	3641635	3644664	-	AT3G02455	overlaps with AT3G11560
Chr3	Araport11	as_lncRNA	3646151	3646625	+	AT3G02465	overlaps with AT3G11570
Chr3	Araport11	as_lncRNA	3907408	3908301	-	AT3G02485	overlaps with AT3G12250
Chr3	Araport11	as_lncRNA	3909414	3910138	+	AT3G02495	overlaps with AT3G12260
Chr3	Araport11	as_lncRNA	3960120	3960327	-	AT3G02505	overlaps with AT3G12480
Chr3	Araport11	as_lncRNA	3960640	3960925	+	AT3G02525	overlaps with AT3G12490
Chr3	Araport11	as_lncRNA	3962406	3964222	+	AT3G12502	overlaps with AT3G12500
Chr3	Araport11	as_lncRNA	3967100	3967822	-	AT3G02535	overlaps with AT3G12510
Chr3	Araport11	as_lncRNA	3970014	3970236	+	AT3G02545	overlaps with AT3G12520
Chr3	Araport11	as_lncRNA	4018251	4018664	+	AT3G02575	overlaps with AT3G12650
Chr3	Araport11	as_lncRNA	4183099	4183884	-	AT3G13061	overlaps with AT3G13060
Chr3	Araport11	as_lncRNA	4520659	4520948	-	AT3G02755	overlaps with AT3G13770
Chr3	Araport11	as_lncRNA	4521764	4522101	+	AT3G02765	overlaps with AT3G13772
Chr3	Araport11	as_lncRNA	4673753	4673985	-	AT3G02845	overlaps with AT3G14100
Chr3	Araport11	as_lncRNA	4687833	4688145	+	AT3G02855	overlaps with AT3G14130
Chr3	Araport11	as_lncRNA	4786391	4786669	+	AT3G02915	overlaps with AT3G14350
Chr3	Araport11	as_lncRNA	4793240	4793563	-	AT3G02925	overlaps with AT3G14360
Chr3	Araport11	as_lncRNA	4793820	4794433	+	AT3G02935	overlaps with AT3G14362
Chr3	Araport11	as_lncRNA	5116694	5117175	-	AT3G03025	overlaps with AT3G15190
Chr3	Araport11	as_lncRNA	5179533	5180286	-	AT3G03095	overlaps with AT3G15352
Chr3	Araport11	as_lncRNA	5181021	5181298	+	AT3G03105	overlaps with AT3G15353
Chr3	Araport11	as_lncRNA	5248893	5249487	-	AT3G03125	overlaps with AT3G15518
Chr3	Araport11	as_lncRNA	5251157	5251646	+	AT3G03135	overlaps with AT3G15520
Chr3	Araport11	as_lncRNA	5270258	5270755	+	AT3G03145	overlaps with AT3G15570
Chr3	Araport11	as_lncRNA	5444368	5444626	+	AT3G03215	overlaps with AT3G16050
Chr3	Araport11	as_lncRNA	5483017	5484530	+	AT3G03225	overlaps with AT3G16180
Chr3	Araport11	as_lncRNA	5505992	5506436	-	AT3G03265	overlaps with AT3G16240
Chr3	Araport11	as_lncRNA	5507834	5508115	+	AT3G03275	overlaps with AT3G16250
Chr3	Araport11	as_lncRNA	5760198	5760590	+	AT3G03385	overlaps with AT3G16860
Chr3	Araport11	as_lncRNA	5953031	5953921	+	AT3G03475	overlaps with AT3G17390
Chr3	Araport11	as_lncRNA	6091592	6092188	+	AT3G03535	overlaps with AT3G17800
Chr3	Araport11	as_lncRNA	6508999	6509239	+	AT3G03785	overlaps with AT3G18870
Chr3	Araport11	as_lncRNA	6554344	6555825	+	AT3G19002	overlaps with AT3G19000
Chr3	Araport11	as_lncRNA	6687213	6689728	-	AT3G03815	overlaps with AT3G19290
Chr3	Araport11	as_lncRNA	6807980	6808309	-	AT3G03865	overlaps with AT3G19590
Chr3	Araport11	as_lncRNA	6870907	6871302	-	AT3G03895	overlaps with AT3G19780
Chr3	Araport11	as_lncRNA	7054433	7054652	-	AT3G03955	overlaps with AT3G20210
Chr3	Araport11	as_lncRNA	7056016	7056537	+	AT3G03965	overlaps with AT3G20230
Chr3	Araport11	as_lncRNA	7230311	7230512	+	AT3G03975	overlaps with AT3G20680
Chr3	Araport11	as_lncRNA	7248046	7248431	-	AT3G04015	overlaps with AT3G20730
Chr3	Araport11	as_lncRNA	7251025	7251234	+	AT3G04025	overlaps with AT3G20740
Chr3	Araport11	as_lncRNA	7269411	7269688	-	AT3G04035	overlaps with AT3G20790
Chr3	Araport11	as_lncRNA	7353907	7355339	-	AT3G20978	overlaps with AT3G20975
Chr3	Araport11	as_lncRNA	7436669	7436940	-	AT3G04055	overlaps with AT3G21200
Chr3	Araport11	as_lncRNA	7582475	7582703	-	AT3G04135	overlaps with AT3G21520
Chr3	Araport11	as_lncRNA	7666298	7669480	-	AT3G21755	overlaps with AT3G21760
Chr3	Araport11	as_lncRNA	7674904	7676519	+	AT3G21781	overlaps with AT3G21780
Chr3	Araport11	as_lncRNA	7685060	7686194	-	AT3G04185	overlaps with AT3G21810
Chr3	Araport11	as_lncRNA	7775358	7776209	+	AT3G22072	overlaps with AT3G22070
Chr3	Araport11	as_lncRNA	7794956	7796327	+	AT3G22121	overlaps with AT3G22120
Chr3	Araport11	as_lncRNA	7838999	7839251	+	AT3G04255	overlaps with AT3G22210
Chr3	Araport11	as_lncRNA	7968578	7968818	-	AT3G04275	overlaps with AT3G22480
Chr3	Araport11	as_lncRNA	8010020	8010417	+	AT3G04285	overlaps with AT3G22630
Chr3	Araport11	as_lncRNA	8678704	8679535	-	AT3G04615	overlaps with AT3G24020
Chr3	Araport11	as_lncRNA	8751134	8751580	+	AT3G04635	overlaps with AT3G24200
Chr3	Araport11	as_lncRNA	8830336	8831838	-	AT3G24332	overlaps with AT3G24330
Chr3	Araport11	as_lncRNA	8921112	8921364	+	AT3G04695	overlaps with AT3G24503
Chr3	Araport11	as_lncRNA	8938260	8942873	-	AT3G24518	overlaps with AT3G24520
Chr3	Araport11	as_lncRNA	8967516	8968400	+	AT3G04755	overlaps with AT3G24570
Chr3	Araport11	as_lncRNA	9006809	9007015	+	AT3G04785	overlaps with AT3G24670
Chr3	Araport11	as_lncRNA	9074259	9074496	-	AT3G04825	overlaps with AT3G24860
Chr3	Araport11	as_lncRNA	9074930	9075146	+	AT3G04835	overlaps with AT3G24870
Chr3	Araport11	as_lncRNA	9282467	9282726	+	AT3G04915	overlaps with AT3G25560
Chr3	Araport11	as_lncRNA	9489544	9489812	-	AT3G04965	overlaps with AT3G25910
Chr3	Araport11	as_lncRNA	9686013	9686274	-	AT3G05015	overlaps with AT3G26470
Chr3	Araport11	as_lncRNA	9803615	9804137	-	AT3G05075	overlaps with AT3G26680
Chr3	Araport11	as_lncRNA	10025823	10026049	-	AT3G05145	overlaps with AT3G27170
Chr3	Araport11	as_lncRNA	10284622	10285086	-	AT3G05285	overlaps with AT3G27750
Chr3	Araport11	as_lncRNA	10392571	10398235	-	AT3G27990	overlaps with NA
Chr3	Araport11	as_lncRNA	10894737	10894948	-	AT3G05575	overlaps with AT3G28880
Chr3	Araport11	as_lncRNA	11498879	11501424	-	AT3G29644	overlaps with AT3G29642
Chr3	Araport11	as_lncRNA	14196558	14196865	+	AT3G06325	overlaps with AT3G41762
Chr3	Araport11	as_lncRNA	16620244	16620537	-	AT3G07105	overlaps with AT3G45290
Chr3	Araport11	as_lncRNA	16732765	16733069	-	AT3G07175	overlaps with AT3G45590
Chr3	Araport11	as_lncRNA	16734296	16735364	+	AT3G07205	overlaps with AT3G45600
Chr3	Araport11	as_lncRNA	16868259	16868467	-	AT3G07305	overlaps with AT3G45870
Chr3	Araport11	as_lncRNA	16897762	16898010	+	AT3G07315	overlaps with AT3G45980
Chr3	Araport11	as_lncRNA	16979325	16979548	-	AT3G07355	overlaps with AT3G46220
Chr3	Araport11	as_lncRNA	16984335	16984787	+	AT3G07365	overlaps with AT3G46230
Chr3	Araport11	as_lncRNA	17015160	17015628	-	AT3G07375	overlaps with AT3G46290
Chr3	Araport11	as_lncRNA	17016006	17017628	+	AT3G07385	overlaps with AT3G46300
Chr3	Araport11	as_lncRNA	17188839	17191349	+	AT3G46658	overlaps with AT3G46660
Chr3	Araport11	as_lncRNA	17191668	17194444	+	AT3G46668	overlaps with NA
Chr3	Araport11	as_lncRNA	17289398	17289611	-	AT3G07605	overlaps with AT3G46950
Chr3	Araport11	as_lncRNA	17312637	17313543	-	AT3G07615	overlaps with AT3G46990
Chr3	Araport11	as_lncRNA	17315766	17316094	+	AT3G07625	overlaps with AT3G47000
Chr3	Araport11	as_lncRNA	17427973	17428237	-	AT3G07705	overlaps with AT3G47295
Chr3	Araport11	as_lncRNA	17532746	17534933	-	AT3G07785	overlaps with AT3G47580
Chr3	Araport11	as_lncRNA	17575071	17575290	+	AT3G07795	overlaps with AT3G47670
Chr3	Araport11	as_lncRNA	17594357	17598436	+	AT3G07805	overlaps with AT3G47730
Chr3	Araport11	as_lncRNA	17638210	17638908	+	AT3G07825	overlaps with AT3G47810
Chr3	Araport11	as_lncRNA	17698204	17698527	+	AT3G07835	overlaps with AT3G47960
Chr3	Araport11	as_lncRNA	17798981	17800373	-	AT3G07875	overlaps with AT3G48190
Chr3	Araport11	as_lncRNA	17831288	17831779	+	AT3G07885	overlaps with AT3G48195
Chr3	Araport11	as_lncRNA	17891635	17892264	-	AT3G07925	overlaps with AT3G48320
Chr3	Araport11	as_lncRNA	18230891	18231181	-	AT3G08045	overlaps with AT3G49180
Chr3	Araport11	as_lncRNA	18417729	18418485	-	AT3G49668	overlaps with AT3G49670
Chr3	Araport11	as_lncRNA	18439077	18439679	-	AT3G08070	overlaps with AT3G49710
Chr3	Araport11	as_lncRNA	18441668	18442021	+	AT3G08075	overlaps with AT3G49720
Chr3	Araport11	as_lncRNA	18968649	18972870	-	AT3G51075	overlaps with AT3G51070
Chr3	Araport11	as_lncRNA	19025110	19026779	-	AT3G51238	overlaps with AT3G51240
Chr3	Araport11	as_lncRNA	19284693	19284928	-	AT3G08215	overlaps with AT3G51970
Chr3	Araport11	as_lncRNA	19302626	19302949	-	AT3G08220	overlaps with AT3G52030
Chr3	Araport11	as_lncRNA	19304381	19304839	+	AT3G08225	overlaps with AT3G52040
Chr3	Araport11	as_lncRNA	19312062	19314685	-	AT3G52072	overlaps with AT3G52070
Chr3	Araport11	as_lncRNA	19323345	19323546	-	AT3G08230	overlaps with AT3G52105
Chr3	Araport11	as_lncRNA	19324711	19324918	+	AT3G08235	overlaps with AT3G52110
Chr3	Araport11	as_lncRNA	19328779	19329226	-	AT3G08240	overlaps with AT3G52120
Chr3	Araport11	as_lncRNA	19332093	19332534	+	AT3G08245	overlaps with AT3G52130
Chr3	Araport11	as_lncRNA	19487129	19488551	+	AT3G52535	overlaps with AT3G52540
Chr3	Araport11	as_lncRNA	19510338	19511335	-	AT3G52605	overlaps with AT3G52610
Chr3	Araport11	as_lncRNA	19592309	19592544	+	AT3G08300	overlaps with AT3G52860
Chr3	Araport11	as_lncRNA	19845287	19845680	-	AT3G08350	overlaps with AT3G53530
Chr3	Araport11	as_lncRNA	20025991	20026491	-	AT3G08365	overlaps with AT3G54080
Chr3	Araport11	as_lncRNA	20173630	20173850	-	AT3G08400	overlaps with AT3G54490
Chr3	Araport11	as_lncRNA	20178471	20178736	+	AT3G08405	overlaps with AT3G54500
Chr3	Araport11	as_lncRNA	20220674	20223024	+	AT3G54625	overlaps with AT3G54630
Chr3	Araport11	as_lncRNA	20284353	20284957	+	AT3G08425	overlaps with AT3G54790
Chr3	Araport11	as_lncRNA	20506149	20506477	-	AT3G08470	overlaps with AT3G55310
Chr3	Araport11	as_lncRNA	20513172	20513538	+	AT3G08475	overlaps with AT3G55320
Chr3	Araport11	as_lncRNA	20534412	20534648	-	AT3G08480	overlaps with AT3G55390
Chr3	Araport11	as_lncRNA	20593845	20594176	-	AT3G08515	overlaps with AT3G55520
Chr3	Araport11	as_lncRNA	20595866	20596297	+	AT3G08525	overlaps with AT3G55530
Chr3	Araport11	as_lncRNA	20794718	20795005	+	AT3G08635	overlaps with AT3G56040
Chr3	Araport11	as_lncRNA	20883089	20883317	-	AT3G08645	overlaps with AT3G56310
Chr3	Araport11	as_lncRNA	20915472	20921502	+	AT3G56408	overlaps with AT3G56410
Chr3	Araport11	as_lncRNA	20931984	20932215	-	AT3G08655	overlaps with AT3G56450
Chr3	Araport11	as_lncRNA	20934127	20934486	+	AT3G08665	overlaps with AT3G56460
Chr3	Araport11	as_lncRNA	20935613	20936037	-	AT3G08675	overlaps with AT3G56470
Chr3	Araport11	as_lncRNA	20938982	20939205	+	AT3G08685	overlaps with AT3G56480
Chr3	Araport11	as_lncRNA	21077044	21077302	-	AT3G08795	overlaps with AT3G56940
Chr3	Araport11	as_lncRNA	21079175	21079377	+	AT3G08805	overlaps with AT3G56950
Chr3	Araport11	as_lncRNA	21464619	21466799	-	AT3G57965	overlaps with AT3G57970
Chr3	Araport11	as_lncRNA	21649011	21649281	-	AT3G09135	overlaps with AT3G58540
Chr3	Araport11	as_lncRNA	21715541	21715885	-	AT3G09145	overlaps with AT3G58710
Chr3	Araport11	as_lncRNA	21739353	21739916	-	AT3G09155	overlaps with AT3G58780
Chr3	Araport11	as_lncRNA	21745458	21746545	+	AT3G58795	overlaps with AT3G58790
Chr3	Araport11	as_lncRNA	21823822	21824201	+	AT3G09175	overlaps with AT3G59040
Chr3	Araport11	as_lncRNA	21832192	21833041	+	AT3G59068	overlaps with AT3G59070
Chr3	Araport11	as_lncRNA	22049730	22051595	-	AT3G59695	overlaps with AT3G59690
Chr3	Araport11	as_lncRNA	22142893	22144281	-	AT3G09275	overlaps with AT3G59940
Chr3	Araport11	as_lncRNA	22146943	22147145	+	AT3G09295	overlaps with AT3G59950
Chr3	Araport11	as_lncRNA	22152185	22152450	-	AT3G09305	overlaps with AT3G59970
Chr3	Araport11	as_lncRNA	22502288	22502558	-	AT3G09495	overlaps with AT3G60910
Chr3	Araport11	as_lncRNA	22664587	22665624	+	AT3G09575	overlaps with AT3G61230
Chr3	Araport11	as_lncRNA	22702892	22703118	-	AT3G09625	overlaps with AT3G61350
Chr3	Araport11	as_lncRNA	22705172	22705406	+	AT3G09635	overlaps with AT3G61360
Chr3	Araport11	as_lncRNA	22706363	22706681	-	AT3G09645	overlaps with AT3G61370
Chr3	Araport11	as_lncRNA	22710120	22710490	+	AT3G09655	overlaps with AT3G61380
Chr3	Araport11	as_lncRNA	22987239	22987527	-	AT3G09725	overlaps with AT3G62080
Chr3	Araport11	as_lncRNA	22988627	22990967	+	AT3G09745	overlaps with AT3G62090
Chr3	Araport11	as_lncRNA	23147450	23147836	-	AT3G09795	overlaps with AT3G62580
Chr3	Araport11	as_lncRNA	23150247	23150606	+	AT3G09815	overlaps with AT3G62590
Chr3	Araport11	as_lncRNA	23232375	23233105	-	AT3G09875	overlaps with AT3G62830
Chr3	Araport11	as_lncRNA	23326001	23326218	-	AT3G09895	overlaps with AT3G63130
Chr3	Araport11	as_lncRNA	23328322	23328607	+	AT3G09905	overlaps with AT3G63140
Chr3	Araport11	as_lncRNA	23412979	23413293	-	AT3G09955	overlaps with AT3G63400
Chr3	Araport11	as_lncRNA	23422590	23426390	-	AT3G63445	overlaps with AT3G63440
Chr3	Araport11	as_lncRNA	23439908	23440369	-	AT3G09965	overlaps with AT3G63470
Chr3	Araport11	as_lncRNA	23444979	23445281	-	AT3G09985	overlaps with AT3G63490
Chr3	Araport11	as_lncRNA	23447820	23448059	+	AT3G09995	overlaps with AT3G63500
Chr4	Araport11	as_lncRNA	162041	162822	-	AT4G03585	overlaps with AT4G00360
Chr4	Araport11	as_lncRNA	163569	163860	+	AT4G03595	overlaps with AT4G00370
Chr4	Araport11	as_lncRNA	231732	231950	-	AT4G03655	overlaps with AT4G00525
Chr4	Araport11	as_lncRNA	277466	277679	-	AT4G03705	overlaps with AT4G00660
Chr4	Araport11	as_lncRNA	315065	316037	-	AT4G03725	overlaps with AT4G00750
Chr4	Araport11	as_lncRNA	329268	330106	+	AT4G03755	overlaps with AT4G00760
Chr4	Araport11	as_lncRNA	447309	447577	-	AT4G03845	overlaps with AT4G01026
Chr4	Araport11	as_lncRNA	681862	682660	+	AT4G03895	overlaps with AT4G01575
Chr4	Araport11	as_lncRNA	690643	692176	+	AT4G01593	overlaps with AT4G01595
Chr4	Araport11	as_lncRNA	733149	733419	+	AT4G03985	overlaps with AT4G01700
Chr4	Araport11	as_lncRNA	820726	821117	+	AT4G04005	overlaps with AT4G01897
Chr4	Araport11	as_lncRNA	842657	843035	+	AT4G04035	overlaps with AT4G01940
Chr4	Araport11	as_lncRNA	897472	898253	-	AT4G04055	overlaps with AT4G02040
Chr4	Araport11	as_lncRNA	973174	973552	-	AT4G04075	overlaps with AT4G02200
Chr4	Araport11	as_lncRNA	1074079	1074344	+	AT4G04135	overlaps with AT4G02450
Chr4	Araport11	as_lncRNA	1149555	1149979	+	AT4G04225	overlaps with AT4G02620
Chr4	Araport11	as_lncRNA	1195269	1195677	+	AT4G04275	overlaps with AT4G02710
Chr4	Araport11	as_lncRNA	1279643	1279985	+	AT4G04335	overlaps with AT4G02890
Chr4	Araport11	as_lncRNA	1360000	1360276	+	AT4G04425	overlaps with AT4G03080
Chr4	Araport11	as_lncRNA	1392584	1393519	-	AT4G04435	overlaps with AT4G03140
Chr4	Araport11	as_lncRNA	1403428	1404292	-	AT4G04445	overlaps with AT4G03180
Chr4	Araport11	as_lncRNA	1405104	1405526	+	AT4G04455	overlaps with AT4G03190
Chr4	Araport11	as_lncRNA	1466474	1466768	-	AT4G04505	overlaps with AT4G03330
Chr4	Araport11	as_lncRNA	1469052	1469672	+	AT4G04515	overlaps with AT4G03340
Chr4	Araport11	as_lncRNA	1961126	1961951	+	AT4G04077	overlaps with AT4G04078
Chr4	Araport11	as_lncRNA	2033168	2036495	-	AT4G04221	overlaps with AT4G04220
Chr4	Araport11	as_lncRNA	2460404	2460620	-	AT4G05015	overlaps with AT4G04860
Chr4	Araport11	as_lncRNA	2591712	2591988	+	AT4G05065	overlaps with AT4G05060
Chr4	Araport11	as_lncRNA	2742200	2742762	-	AT4G05155	overlaps with AT4G05400
Chr4	Araport11	as_lncRNA	5254688	5254959	-	AT4G05395	overlaps with AT4G08320
Chr4	Araport11	as_lncRNA	5255757	5256393	+	AT4G05405	overlaps with AT4G08330
Chr4	Araport11	as_lncRNA	5731144	5731408	+	AT4G05680	overlaps with AT4G08940
Chr4	Araport11	as_lncRNA	5776265	5777106	-	AT4G05685	overlaps with AT4G09000
Chr4	Araport11	as_lncRNA	5972915	5975195	-	AT4G09432	overlaps with AT4G09430
Chr4	Araport11	as_lncRNA	6175458	6175682	+	AT4G05735	overlaps with AT4G09810
Chr4	Araport11	as_lncRNA	6269079	6270196	-	AT4G05755	overlaps with AT4G10020
Chr4	Araport11	as_lncRNA	6308680	6308879	-	AT4G05760	overlaps with AT4G10100
Chr4	Araport11	as_lncRNA	6374674	6375110	-	AT4G05775	overlaps with AT4G10270
Chr4	Araport11	as_lncRNA	6478619	6478855	+	AT4G05785	overlaps with AT4G10480
Chr4	Araport11	as_lncRNA	6614223	6614456	+	AT4G05810	overlaps with AT4G10730
Chr4	Araport11	as_lncRNA	6619461	6619844	-	AT4G05815	overlaps with AT4G10750
Chr4	Araport11	as_lncRNA	7043788	7044139	-	AT4G05910	overlaps with AT4G11660
Chr4	Araport11	as_lncRNA	7048721	7048984	+	AT4G05915	overlaps with AT4G11670
Chr4	Araport11	as_lncRNA	7182648	7182968	-	AT4G05935	overlaps with AT4G11970
Chr4	Araport11	as_lncRNA	7732009	7732335	-	AT4G06060	overlaps with AT4G13270
Chr4	Araport11	as_lncRNA	7858000	7859891	-	AT4G13505	overlaps with AT4G13510
Chr4	Araport11	as_lncRNA	7900564	7900798	-	AT4G06135	overlaps with AT4G13580
Chr4	Araport11	as_lncRNA	8043587	8047176	-	AT4G13918	overlaps with AT4G13920
Chr4	Araport11	as_lncRNA	8123399	8123615	+	AT4G06175	overlaps with AT4G14090
Chr4	Araport11	as_lncRNA	8422818	8423642	-	AT4G06210	overlaps with AT4G14700
Chr4	Araport11	as_lncRNA	8425991	8426365	+	AT4G06215	overlaps with AT4G14710
Chr4	Araport11	as_lncRNA	8992981	8994173	-	AT4G06340	overlaps with AT4G15820
Chr4	Araport11	as_lncRNA	9260558	9260982	-	AT4G06395	overlaps with AT4G16400
Chr4	Araport11	as_lncRNA	9386180	9387271	-	AT4G06410	overlaps with AT4G16670
Chr4	Araport11	as_lncRNA	9390464	9390930	+	AT4G06415	overlaps with AT4G16680
Chr4	Araport11	as_lncRNA	9606803	9607320	+	AT4G06665	overlaps with AT4G17090
Chr4	Araport11	as_lncRNA	9608632	9611700	+	AT4G17098	overlaps with AT4G17100
Chr4	Araport11	as_lncRNA	9679632	9680286	+	AT4G06685	overlaps with AT4G17280
Chr4	Araport11	as_lncRNA	9714934	9715298	+	AT4G06695	overlaps with AT4G17390
Chr4	Araport11	as_lncRNA	9920124	9920511	+	AT4G06745	overlaps with AT4G17840
Chr4	Araport11	as_lncRNA	10150417	10150793	-	AT4G06770	overlaps with AT4G18370
Chr4	Araport11	as_lncRNA	10151689	10152086	+	AT4G06775	overlaps with AT4G18372
Chr4	Araport11	as_lncRNA	10169319	10170010	-	AT4G06780	overlaps with AT4G18395
Chr4	Araport11	as_lncRNA	10454142	10454361	-	AT4G06870	overlaps with AT4G19100
Chr4	Araport11	as_lncRNA	10472128	10472543	+	AT4G06875	overlaps with AT4G19150
Chr4	Araport11	as_lncRNA	10989908	10992242	-	AT4G20362	overlaps with AT4G20360
Chr4	Araport11	as_lncRNA	11291646	11292133	-	AT4G06985	overlaps with AT4G21180
Chr4	Araport11	as_lncRNA	11338455	11338677	-	AT4G06990	overlaps with AT4G21300
Chr4	Araport11	as_lncRNA	11339389	11339846	+	AT4G06995	overlaps with AT4G21310
Chr4	Araport11	as_lncRNA	11577025	11577254	+	AT4G07030	overlaps with AT4G21810
Chr4	Araport11	as_lncRNA	11763229	11764250	-	AT4G22233	overlaps with AT4G22235
Chr4	Araport11	as_lncRNA	11777849	11778090	+	AT4G07065	overlaps with AT4G22280
Chr4	Araport11	as_lncRNA	11810298	11810875	+	AT4G07085	overlaps with AT4G22370
Chr4	Araport11	as_lncRNA	11942107	11943027	-	AT4G07095	overlaps with AT4G22730
Chr4	Araport11	as_lncRNA	12279302	12279867	-	AT4G07130	overlaps with AT4G23530
Chr4	Araport11	as_lncRNA	12314032	12314494	-	AT4G07165	overlaps with AT4G23610
Chr4	Araport11	as_lncRNA	12420756	12421515	+	AT4G07190	overlaps with AT4G23890
Chr4	Araport11	as_lncRNA	12470192	12470725	+	AT4G07195	overlaps with AT4G24015
Chr4	Araport11	as_lncRNA	12610056	12610385	-	AT4G07255	overlaps with AT4G24350
Chr4	Araport11	as_lncRNA	12611571	12611780	+	AT4G07260	overlaps with AT4G24370
Chr4	Araport11	as_lncRNA	12662029	12662344	-	AT4G07275	overlaps with AT4G24510
Chr4	Araport11	as_lncRNA	12785816	12786233	-	AT4G07285	overlaps with AT4G24805
Chr4	Araport11	as_lncRNA	12789033	12789468	+	AT4G07290	overlaps with AT4G24810
Chr4	Araport11	as_lncRNA	12913299	12913499	+	AT4G07365	overlaps with AT4G25180
Chr4	Araport11	as_lncRNA	13027581	13028194	+	AT4G07405	overlaps with AT4G25510
Chr4	Araport11	as_lncRNA	13099788	13101017	+	AT4G25719	overlaps with AT4G25720
Chr4	Araport11	as_lncRNA	13154711	13155507	-	AT4G25885	overlaps with AT4G25880
Chr4	Araport11	as_lncRNA	13224204	13227622	-	AT4G26095	overlaps with AT4G26090
Chr4	Araport11	as_lncRNA	13375093	13375318	+	AT4G07655	overlaps with AT4G26480
Chr4	Araport11	as_lncRNA	13380153	13381692	-	AT4G26488	overlaps with AT4G26490
Chr4	Araport11	as_lncRNA	13395415	13398178	+	AT4G26542	overlaps with AT4G26540
Chr4	Araport11	as_lncRNA	13413548	13416178	+	AT4G26582	overlaps with AT4G26590
Chr4	Araport11	as_lncRNA	13487209	13489637	-	AT4G26795	overlaps with AT4G26790
Chr4	Araport11	as_lncRNA	13546626	13546881	-	AT4G07735	overlaps with AT4G26970
Chr4	Araport11	as_lncRNA	13743303	13746071	-	AT4G07855	overlaps with AT4G27500
Chr4	Araport11	as_lncRNA	13836090	13836305	+	AT4G07895	overlaps with AT4G27730
Chr4	Araport11	as_lncRNA	13872023	13873907	-	AT4G27852	overlaps with AT4G27850 and AT4G27860
Chr4	Araport11	as_lncRNA	13979567	13981536	-	AT4G28162	overlaps with AT4G28160
Chr4	Araport11	as_lncRNA	13982246	13982492	-	AT4G08005	overlaps with AT4G28170
Chr4	Araport11	as_lncRNA	13982990	13983427	+	AT4G08015	overlaps with AT4G28180
Chr4	Araport11	as_lncRNA	14144675	14147417	+	AT4G28652	overlaps with AT4G28650
Chr4	Araport11	as_lncRNA	14597608	14598223	-	AT4G08225	overlaps with AT4G29830
Chr4	Araport11	as_lncRNA	14618389	14619394	+	AT4G08245	overlaps with AT4G29900
Chr4	Araport11	as_lncRNA	14879849	14880317	+	AT4G08285	overlaps with AT4G30430
Chr4	Araport11	as_lncRNA	14947779	14948073	-	AT4G08295	overlaps with AT4G30610
Chr4	Araport11	as_lncRNA	14955534	14955832	-	AT4G08305	overlaps with AT4G30660
Chr4	Araport11	as_lncRNA	14956315	14956768	+	AT4G08315	overlaps with AT4G30662
Chr4	Araport11	as_lncRNA	15179132	15180803	+	AT4G31248	overlaps with AT4G31250
Chr4	Araport11	as_lncRNA	15238554	15239474	-	AT4G31398	overlaps with AT4G31400
Chr4	Araport11	as_lncRNA	15405984	15406345	-	AT4G08575	overlaps with AT4G31850
Chr4	Araport11	as_lncRNA	15757389	15757707	-	AT4G08705	overlaps with AT4G32660
Chr4	Araport11	as_lncRNA	16054583	16056611	+	AT4G08785	overlaps with AT4G33300
Chr4	Araport11	as_lncRNA	16157209	16157554	-	AT4G08795	overlaps with AT4G33630
Chr4	Araport11	as_lncRNA	16159913	16160152	+	AT4G08805	overlaps with AT4G33640
Chr4	Araport11	as_lncRNA	16169218	16169439	-	AT4G08815	overlaps with AT4G33666
Chr4	Araport11	as_lncRNA	16169999	16170525	+	AT4G08825	overlaps with AT4G33670
Chr4	Araport11	as_lncRNA	16325750	16326840	+	AT4G34071	overlaps with AT4G34070
Chr4	Araport11	as_lncRNA	16341960	16342266	-	AT4G08925	overlaps with AT4G34120
Chr4	Araport11	as_lncRNA	16343526	16343808	+	AT4G08935	overlaps with AT4G34131
Chr4	Araport11	as_lncRNA	16424716	16425890	-	AT4G34332	overlaps with AT4G34330
Chr4	Araport11	as_lncRNA	16452065	16452725	-	AT4G08985	overlaps with AT4G34410
Chr4	Araport11	as_lncRNA	16873770	16874114	-	AT4G09165	overlaps with AT4G35540
Chr4	Araport11	as_lncRNA	16904487	16904812	-	AT4G09225	overlaps with AT4G35630
Chr4	Araport11	as_lncRNA	17044958	17047346	+	AT4G36032	overlaps with AT4G36030
Chr4	Araport11	as_lncRNA	17052347	17053499	+	AT4G36052	overlaps with AT4G36050
Chr4	Araport11	as_lncRNA	17311769	17312229	+	AT4G09375	overlaps with AT4G36730
Chr4	Araport11	as_lncRNA	17330729	17331348	+	AT4G09385	overlaps with AT4G36770
Chr4	Araport11	as_lncRNA	17343253	17344902	-	AT4G36808	overlaps with AT4G36810
Chr4	Araport11	as_lncRNA	17516210	17516904	-	AT4G37225	overlaps with AT4G37230
Chr4	Araport11	as_lncRNA	17596973	17598929	-	AT4G37432	overlaps with AT4G37430
Chr4	Araport11	as_lncRNA	17646613	17650067	-	AT4G37553	overlaps with AT4G37550 and AT4G37560
Chr4	Araport11	as_lncRNA	17813545	17815178	+	AT4G37895	overlaps with AT4G37890
Chr4	Araport11	as_lncRNA	17907917	17909707	+	AT4G09685	overlaps with AT4G38180
Chr4	Araport11	as_lncRNA	17922913	17924252	+	AT4G38215	overlaps with AT4G38210
Chr4	Araport11	as_lncRNA	17935407	17937048	-	AT4G09695	overlaps with AT4G38250
Chr4	Araport11	as_lncRNA	18022932	18025298	-	AT4G38545	overlaps with AT4G38530 and AT4G38540
Chr4	Araport11	as_lncRNA	18025587	18028764	-	AT4G38552	overlaps with AT4G38550
Chr4	Araport11	as_lncRNA	18030895	18031163	-	AT4G09715	overlaps with AT4G38560
Chr4	Araport11	as_lncRNA	18151827	18152597	-	AT4G38932	overlaps with AT4G38930
Chr4	Araport11	as_lncRNA	18189595	18189953	+	AT4G09785	overlaps with AT4G39040
Chr4	Araport11	as_lncRNA	18241247	18241815	-	AT4G09815	overlaps with AT4G39170
Chr4	Araport11	as_lncRNA	18484794	18486870	-	AT4G39838	overlaps with AT4G39840
Chr4	Araport11	as_lncRNA	18533827	18534208	-	AT4G09955	overlaps with AT4G39960
Chr4	Araport11	as_lncRNA	18538133	18538464	+	AT4G09975	overlaps with AT4G39970
Chr4	Araport11	as_lncRNA	18542473	18542681	-	AT4G09985	overlaps with AT4G39990
Chr4	Araport11	as_lncRNA	18579194	18580702	-	AT4G40085	overlaps with AT4G40080
Chr5	Araport11	as_lncRNA	60208	61214	+	AT5G01175	overlaps with AT5G01180
Chr5	Araport11	as_lncRNA	84466	86258	-	AT5G01215	overlaps with AT5G01210
Chr5	Araport11	as_lncRNA	211017	213593	+	AT5G01542	overlaps with AT5G01540
Chr5	Araport11	as_lncRNA	222511	224034	+	AT5G00780	overlaps with AT5G01580
Chr5	Araport11	as_lncRNA	226972	229286	+	AT5G01595	overlaps with AT5G01600
Chr5	Araport11	as_lncRNA	266640	266874	+	AT5G00785	overlaps with AT5G01720
Chr5	Araport11	as_lncRNA	272839	276426	+	AT5G01732	overlaps with AT5G01730
Chr5	Araport11	as_lncRNA	423921	424177	-	AT5G00815	overlaps with AT5G02140
Chr5	Araport11	as_lncRNA	424426	424704	+	AT5G00820	overlaps with AT5G02150
Chr5	Araport11	as_lncRNA	562930	563175	-	AT5G00860	overlaps with AT5G02520
Chr5	Araport11	as_lncRNA	564507	564810	+	AT5G00865	overlaps with AT5G02530
Chr5	Araport11	as_lncRNA	583419	583724	-	AT5G00870	overlaps with AT5G02590
Chr5	Araport11	as_lncRNA	624122	625391	-	AT5G00875	overlaps with AT5G02760
Chr5	Araport11	as_lncRNA	648062	648538	+	AT5G00880	overlaps with AT5G02830
Chr5	Araport11	as_lncRNA	707526	707791	-	AT5G00895	overlaps with AT5G03020
Chr5	Araport11	as_lncRNA	709137	709370	+	AT5G00900	overlaps with AT5G03030
Chr5	Araport11	as_lncRNA	758519	758719	-	AT5G00905	overlaps with AT5G03190
Chr5	Araport11	as_lncRNA	846529	846760	-	AT5G00920	overlaps with AT5G03420
Chr5	Araport11	as_lncRNA	947101	948967	-	AT5G03668	overlaps with AT5G03670
Chr5	Araport11	as_lncRNA	1244826	1245200	-	AT5G00965	overlaps with AT5G04410
Chr5	Araport11	as_lncRNA	1373673	1374232	+	AT5G00990	overlaps with AT5G04760
Chr5	Araport11	as_lncRNA	1542523	1542892	-	AT5G01005	overlaps with AT5G05190
Chr5	Araport11	as_lncRNA	1606377	1607738	+	AT5G05435	overlaps with AT5G05430
Chr5	Araport11	as_lncRNA	1727415	1727854	-	AT5G01095	overlaps with AT5G05750
Chr5	Araport11	as_lncRNA	1802414	1802753	+	AT5G01125	overlaps with AT5G05980
Chr5	Araport11	as_lncRNA	1876406	1876610	+	AT5G01205	overlaps with AT5G06190
Chr5	Araport11	as_lncRNA	1931292	1931572	+	AT5G01255	overlaps with AT5G06320
Chr5	Araport11	as_lncRNA	2132197	2133746	-	AT5G06865	overlaps with AT5G06860
Chr5	Araport11	as_lncRNA	2206347	2206648	-	AT5G01295	overlaps with AT5G07110
Chr5	Araport11	as_lncRNA	2208375	2208919	+	AT5G01315	overlaps with AT5G07120
Chr5	Araport11	as_lncRNA	2215579	2218171	-	AT5G07152	overlaps with AT5G07150
Chr5	Araport11	as_lncRNA	2271907	2272237	-	AT5G01375	overlaps with AT5G07240
Chr5	Araport11	as_lncRNA	2520851	2521290	-	AT5G01435	overlaps with AT5G07900
Chr5	Araport11	as_lncRNA	2664956	2665375	+	AT5G01545	overlaps with AT5G08280
Chr5	Araport11	as_lncRNA	2765916	2766161	+	AT5G01555	overlaps with AT5G08550
Chr5	Araport11	as_lncRNA	2871406	2871630	-	AT5G01615	overlaps with AT5G09230
Chr5	Araport11	as_lncRNA	2940443	2941493	-	AT5G09443	overlaps with AT5G09445
Chr5	Araport11	as_lncRNA	3126018	3126374	+	AT5G01645	overlaps with AT5G09995
Chr5	Araport11	as_lncRNA	3173371	3179600	+	AT5G01675	overlaps with AT5G10140 (FLC)
Chr5	Araport11	as_lncRNA	3332631	3334971	+	AT5G01765	overlaps with AT5G10550
Chr5	Araport11	as_lncRNA	3377666	3378106	-	AT5G01815	overlaps with AT5G10695
Chr5	Araport11	as_lncRNA	3424931	3425529	+	AT5G01835	overlaps with AT5G10840
Chr5	Araport11	as_lncRNA	4008968	4010413	-	AT5G01935	overlaps with AT5G12380
Chr5	Araport11	as_lncRNA	4011615	4011841	+	AT5G01945	overlaps with AT5G12390
Chr5	Araport11	as_lncRNA	4341236	4341690	-	AT5G02095	overlaps with AT5G13510
Chr5	Araport11	as_lncRNA	4470453	4470828	+	AT5G02105	overlaps with AT5G13840
Chr5	Araport11	as_lncRNA	4495324	4495851	+	AT5G02125	overlaps with AT5G13940
Chr5	Araport11	as_lncRNA	4556624	4556997	-	AT5G02155	overlaps with AT5G14120
Chr5	Araport11	as_lncRNA	4595271	4595920	-	AT5G02195	overlaps with AT5G14230
Chr5	Araport11	as_lncRNA	4656156	4656362	+	AT5G02225	overlaps with AT5G14440
Chr5	Araport11	as_lncRNA	4866237	4866939	+	AT5G15022	overlaps with AT5G15030
Chr5	Araport11	as_lncRNA	5012367	5013135	-	AT5G02415	overlaps with AT5G15440
Chr5	Araport11	as_lncRNA	5153720	5154168	+	AT5G02455	overlaps with AT5G15800
Chr5	Araport11	as_lncRNA	5173081	5178291	+	AT5G15845	overlaps with AT5G15850
Chr5	Araport11	as_lncRNA	5239271	5240333	-	AT5G02515	overlaps with AT5G16030
Chr5	Araport11	as_lncRNA	5304494	5305945	-	AT5G16235	overlaps with AT5G16230
Chr5	Araport11	as_lncRNA	5343699	5344026	+	AT5G02525	overlaps with AT5G16310
Chr5	Araport11	as_lncRNA	5411197	5411631	+	AT5G02555	overlaps with AT5G16560
Chr5	Araport11	as_lncRNA	5534569	5534966	+	AT5G02595	overlaps with AT5G16830
Chr5	Araport11	as_lncRNA	5536027	5536776	-	AT5G02605	overlaps with AT5G16840
Chr5	Araport11	as_lncRNA	5720754	5721544	-	AT5G02695	overlaps with AT5G17360
Chr5	Araport11	as_lncRNA	5735174	5735599	-	AT5G02705	overlaps with AT5G17410
Chr5	Araport11	as_lncRNA	5810592	5810887	-	AT5G02755	overlaps with AT5G17630
Chr5	Araport11	as_lncRNA	5987489	5987893	-	AT5G02875	overlaps with AT5G18100
Chr5	Araport11	as_lncRNA	6028020	6033342	+	AT5G18245	overlaps with AT5G18240
Chr5	Araport11	as_lncRNA	6035619	6037641	+	AT5G18255	overlaps with AT5G18260
Chr5	Araport11	as_lncRNA	6127882	6129050	-	AT5G02895	overlaps with AT5G18470
Chr5	Araport11	as_lncRNA	6177704	6177988	-	AT5G02905	overlaps with AT5G18580
Chr5	Araport11	as_lncRNA	6463964	6466349	+	AT5G19221	overlaps with AT5G19220
Chr5	Araport11	as_lncRNA	6824535	6826112	-	AT5G20225	overlaps with AT5G20220
Chr5	Araport11	as_lncRNA	6938816	6939201	-	AT5G03165	overlaps with AT5G20500
Chr5	Araport11	as_lncRNA	6940253	6942769	+	AT5G03175	overlaps with AT5G20510
Chr5	Araport11	as_lncRNA	6985687	6985952	+	AT5G03185	overlaps with AT5G20650
Chr5	Araport11	as_lncRNA	7014727	7015030	-	AT5G03195	overlaps with AT5G20720
Chr5	Araport11	as_lncRNA	7091915	7092125	-	AT5G03235	overlaps with AT5G20900
Chr5	Araport11	as_lncRNA	7094154	7094423	+	AT5G03245	overlaps with AT5G20910
Chr5	Araport11	as_lncRNA	7104031	7106966	+	AT5G03255	overlaps with AT5G20940
Chr5	Araport11	as_lncRNA	7308937	7309219	-	AT5G03375	overlaps with AT5G22070
Chr5	Araport11	as_lncRNA	7825800	7826898	+	AT5G03585	overlaps with AT5G23230
Chr5	Araport11	as_lncRNA	7985806	7986024	+	AT5G03635	overlaps with AT5G23680
Chr5	Araport11	as_lncRNA	8431888	8432396	-	AT5G03805	overlaps with AT5G24620
Chr5	Araport11	as_lncRNA	8520898	8521247	+	AT5G03825	overlaps with AT5G24810
Chr5	Araport11	as_lncRNA	8530939	8531228	-	AT5G03835	overlaps with AT5G24830
Chr5	Araport11	as_lncRNA	8644914	8645262	-	AT5G03875	overlaps with AT5G25080
Chr5	Araport11	as_lncRNA	8857370	8857668	-	AT5G03975	overlaps with AT5G25450
Chr5	Araport11	as_lncRNA	8863042	8864418	-	AT5G03985	overlaps with AT5G25460
Chr5	Araport11	as_lncRNA	8881711	8882079	-	AT5G04005	overlaps with AT5G25500
Chr5	Araport11	as_lncRNA	8884608	8884838	+	AT5G04015	overlaps with AT5G25510
Chr5	Araport11	as_lncRNA	9054335	9054590	+	AT5G04185	overlaps with AT5G25940
Chr5	Araport11	as_lncRNA	9135913	9139579	+	AT5G26146	overlaps with AT5G26150
Chr5	Araport11	as_lncRNA	9508106	9508349	-	AT5G04335	overlaps with AT5G27020
Chr5	Araport11	as_lncRNA	9618044	9618335	-	AT5G04375	overlaps with AT5G27280
Chr5	Araport11	as_lncRNA	10939952	10941810	-	AT5G04905	overlaps with AT5G28919
Chr5	Araport11	as_lncRNA	14141478	14143303	-	AT5G36002	overlaps with AT5G36001.
Chr5	Araport11	as_lncRNA	15260664	15265619	-	AT5G38212	overlaps with AT5G38210
Chr5	Araport11	as_lncRNA	15822219	15822437	-	AT5G05975	overlaps with AT5G39510
Chr5	Araport11	as_lncRNA	15883195	15884130	-	AT5G05995	overlaps with AT5G39670
Chr5	Araport11	as_lncRNA	16136594	16141245	+	AT5G40348	overlaps with AT5G40350
Chr5	Araport11	as_lncRNA	16534231	16535281	-	AT5G06155	overlaps with AT5G41320
Chr5	Araport11	as_lncRNA	16638352	16641307	+	AT5G41612	overlaps with AT5G41610
Chr5	Araport11	as_lncRNA	16757977	16758829	-	AT5G06235	overlaps with AT5G41860
Chr5	Araport11	as_lncRNA	16758986	16759343	+	AT5G06245	overlaps with AT5G41870
Chr5	Araport11	as_lncRNA	16826639	16828529	-	AT5G42092	overlaps with AT5G42090
Chr5	Araport11	as_lncRNA	16920835	16921229	+	AT5G06295	overlaps with AT5G42320
Chr5	Araport11	as_lncRNA	17149832	17150219	-	AT5G06385	overlaps with AT5G42760
Chr5	Araport11	as_lncRNA	17170305	17171188	+	AT5G06395	overlaps with AT5G42820
Chr5	Araport11	as_lncRNA	17456330	17456695	+	AT5G06505	overlaps with AT5G43440
Chr5	Araport11	as_lncRNA	17947617	17948398	-	AT5G44562	overlaps with AT5G44560
Chr5	Araport11	as_lncRNA	18138900	18140431	-	AT5G06665	overlaps with AT5G44920
Chr5	Araport11	as_lncRNA	18172400	18176207	+	AT5G06695	overlaps with AT5G45040
Chr5	Araport11	as_lncRNA	18421549	18431063	+	AT5G45472	overlaps with NA
Chr5	Araport11	as_lncRNA	19309153	19309593	-	AT5G07015	overlaps with AT5G47640
Chr5	Araport11	as_lncRNA	19336704	19337115	+	AT5G07025	overlaps with AT5G47730
Chr5	Araport11	as_lncRNA	19764422	19764740	-	AT5G07265	overlaps with AT5G48730
Chr5	Araport11	as_lncRNA	19772844	19777231	+	AT5G48775	overlaps with AT5G48770
Chr5	Araport11	as_lncRNA	19787994	19788229	-	AT5G07275	overlaps with AT5G48800
Chr5	Araport11	as_lncRNA	19789614	19790115	+	AT5G07285	overlaps with AT5G48810
Chr5	Araport11	as_lncRNA	19915806	19917787	-	AT5G49138	overlaps with AT5G49130
Chr5	Araport11	as_lncRNA	19924322	19929377	+	AT5G49152	overlaps with AT5G49150
Chr5	Araport11	as_lncRNA	20306885	20307120	+	AT5G07515	overlaps with AT5G49920
Chr5	Araport11	as_lncRNA	20318418	20318925	-	AT5G07525	overlaps with AT5G49945
Chr5	Araport11	as_lncRNA	21170058	21172163	-	AT5G07885	overlaps with AT5G52100
Chr5	Araport11	as_lncRNA	21205973	21206172	-	AT5G07895	overlaps with AT5G52210
Chr5	Araport11	as_lncRNA	21509861	21511850	+	AT5G53048	overlaps with AT5G53050
Chr5	Araport11	as_lncRNA	21647906	21648715	-	AT5G07975	overlaps with AT5G53360
Chr5	Araport11	as_lncRNA	21651112	21651384	+	AT5G07985	overlaps with AT5G53370
Chr5	Araport11	as_lncRNA	21985695	21986009	+	AT5G08135	overlaps with AT5G54170
Chr5	Araport11	as_lncRNA	22054872	22055215	+	AT5G08175	overlaps with AT5G54300
Chr5	Araport11	as_lncRNA	22167273	22170610	+	AT5G54569	overlaps with AT5G54570
Chr5	Araport11	as_lncRNA	22217441	22218070	-	AT5G08235	overlaps with AT5G54680
Chr5	Araport11	as_lncRNA	22467509	22468191	-	AT5G08275	overlaps with AT5G55450
Chr5	Araport11	as_lncRNA	22468929	22469238	-	AT5G08285	overlaps with AT5G55460
Chr5	Araport11	as_lncRNA	22655538	22655817	-	AT5G08425	overlaps with AT5G55930
Chr5	Araport11	as_lncRNA	23521073	23522182	+	AT5G08820	overlaps with AT5G58130
Chr5	Araport11	as_lncRNA	23575392	23575746	+	AT5G08825	overlaps with AT5G58310
Chr5	Araport11	as_lncRNA	23577476	23577716	-	AT5G08830	overlaps with AT5G58320
Chr5	Araport11	as_lncRNA	23663075	23663561	-	AT5G08835	overlaps with AT5G58540
Chr5	Araport11	as_lncRNA	23673058	23673482	+	AT5G08840	overlaps with AT5G58570
Chr5	Araport11	as_lncRNA	23694217	23694466	-	AT5G08870	overlaps with AT5G58620
Chr5	Araport11	as_lncRNA	23806390	23807002	-	AT5G08880	overlaps with AT5G58960
Chr5	Araport11	as_lncRNA	23809014	23809560	+	AT5G08885	overlaps with AT5G58970
Chr5	Araport11	as_lncRNA	23974483	23976069	-	AT5G08920	overlaps with AT5G59450
Chr5	Araport11	as_lncRNA	24039142	24040530	-	AT5G59662	overlaps with AT5G59660
Chr5	Araport11	as_lncRNA	24063950	24066215	+	AT5G59732	overlaps with AT5G59730
Chr5	Araport11	as_lncRNA	24167141	24170261	-	AT5G60022	overlaps with AT5G60020
Chr5	Araport11	as_lncRNA	24185306	24185574	+	AT5G08950	overlaps with AT5G60050
Chr5	Araport11	as_lncRNA	24369825	24370111	+	AT5G08960	overlaps with AT5G60630
Chr5	Araport11	as_lncRNA	24484536	24484954	-	AT5G08980	overlaps with AT5G60860
Chr5	Araport11	as_lncRNA	24624933	24625189	-	AT5G08990	overlaps with AT5G61210
Chr5	Araport11	as_lncRNA	24901362	24903100	+	AT5G09030	overlaps with AT5G61990
Chr5	Araport11	as_lncRNA	25284023	25284489	+	AT5G09120	overlaps with AT5G63020
Chr5	Araport11	as_lncRNA	25293451	25293694	-	AT5G09135	overlaps with AT5G63050
Chr5	Araport11	as_lncRNA	25346729	25348386	-	AT5G63195	overlaps with AT5G63190
Chr5	Araport11	as_lncRNA	25370434	25370870	+	AT5G09150	overlaps with AT5G63290
Chr5	Araport11	as_lncRNA	25374353	25375247	+	AT5G09155	overlaps with AT5G63320
Chr5	Araport11	as_lncRNA	25420555	25420756	+	AT5G09160	overlaps with AT5G63490
Chr5	Araport11	as_lncRNA	25616392	25618826	-	AT5G09175	overlaps with AT5G64000
Chr5	Araport11	as_lncRNA	25670435	25670699	+	AT5G09185	overlaps with AT5G64150
Chr5	Araport11	as_lncRNA	25810298	25811733	+	AT5G64572	overlaps with AT5G64570
Chr5	Araport11	as_lncRNA	25913347	25913937	-	AT5G09275	overlaps with AT5G64816
Chr5	Araport11	as_lncRNA	25944366	25944625	+	AT5G09285	overlaps with AT5G64920
Chr5	Araport11	as_lncRNA	26176128	26176380	-	AT5G09385	overlaps with AT5G65480
Chr5	Araport11	as_lncRNA	26198122	26199914	+	AT5G09395	overlaps with AT5G65550
Chr5	Araport11	as_lncRNA	26206613	26207981	-	AT5G65575	overlaps with AT5G65580
Chr5	Araport11	as_lncRNA	26228437	26229574	+	AT5G09405	overlaps with AT5G65630
Chr5	Araport11	as_lncRNA	26386705	26387157	-	AT5G09535	overlaps with AT5G65960
Chr5	Araport11	as_lncRNA	26416132	26416339	-	AT5G09565	overlaps with AT5G66052
Chr5	Araport11	as_lncRNA	26476110	26477746	-	AT5G09595	overlaps with AT5G66280
Chr5	Araport11	as_lncRNA	26563964	26566847	-	AT5G66558	overlaps with AT5G66560
Chr5	Araport11	as_lncRNA	26640281	26640526	+	AT5G09685	overlaps with AT5G66720
Chr5	Araport11	as_lncRNA	26710847	26711229	-	AT5G09785	overlaps with AT5G66880
Chr5	Araport11	as_lncRNA	26822454	26822856	-	AT5G09845	overlaps with AT5G67230
Chr5	Araport11	as_lncRNA	26854259	26854516	-	AT5G09855	overlaps with AT5G67300
Chr5	Araport11	as_lncRNA	26933872	26934871	+	AT5G67488	overlaps with AT5G67490
Chr5	Araport11	as_lncRNA	26945759	26946038	+	AT5G09925	overlaps with AT5G67540
